materials = (
  {
    'shininess':102.400001526,
    'specular':[0.5, 0.5, 0.5, 1.0],
    'ambient':[0.5, 0.10000000149011612, 0.10000000149011612, 1.0],
    'diffuse':[1.0, 0.20000000298023224, 0.20000000298023224, 1.0],
    'emission':[0.0, 0.0, 0.0, 1.0],
  },
  {
    'shininess':102.400001526,
    'specular':[0.25, 0.25, 0.25, 1.0],
    'ambient':[0.31999999284744263, 0.31999999284744263, 0.31999999284744263, 1.0],
    'diffuse':[0.63999998569488525, 0.63999998569488525, 0.63999998569488525, 1.0],
    'emission':[0.0, 0.0, 0.0, 1.0],
  },
  {
    'shininess':102.400001526,
    'specular':[0.25, 0.25, 0.25, 1.0],
    'ambient':[0.11999999731779099, 0.11999999731779099, 0.11999999731779099, 1.0],
    'diffuse':[0.23999999463558197, 0.23999999463558197, 0.23999999463558197, 1.0],
    'emission':[0.0, 0.0, 0.0, 1.0],
  },
)
vertices = [
0.089274, -0.124169, -0.073609,
0.089274, -0.106239, -0.042553,
0.089274, -0.160029, -0.073609,
0.089274, -0.106239, -0.042553,
0.089274, -0.177959, -0.042553,
0.089274, -0.160029, -0.073609,
0.089274, -0.106239, -0.042553,
0.089274, -0.124169, -0.011497,
0.089274, -0.177959, -0.042553,
0.089274, -0.124169, -0.011497,
0.089274, -0.160029, -0.011497,
0.089274, -0.177959, -0.042553,
0.079199, 0.213488, 0.028436,
0.076007, 0.147388, 0.031063,
0.085723, 0.215486, 0.008146,
0.091865, 0.155831, -0.011497,
0.091865, 0.119971, -0.011497,
0.091865, 0.102041, -0.042553,
0.091865, 0.173761, -0.042553,
0.091865, 0.155831, -0.011497,
0.091865, 0.102041, -0.042553,
0.091865, 0.173761, -0.042553,
0.091865, 0.102041, -0.042553,
0.091865, 0.119971, -0.073609,
0.091865, 0.155831, -0.073609,
0.091865, 0.173761, -0.042553,
0.091865, 0.119971, -0.073609,
0.073982, -0.095684, 0.025819,
0.064621, -0.030730, 0.067560,
0.000000, -0.038623, 0.072709,
0.000000, -0.108875, 0.025819,
0.073982, -0.095684, 0.025819,
0.000000, -0.038623, 0.072709,
0.076007, 0.147388, 0.031063,
0.000000, 0.100147, 0.073609,
0.058315, 0.095984, 0.070168,
0.076007, 0.147388, 0.031063,
0.000000, 0.164337, 0.033899,
0.000000, 0.100147, 0.073609,
0.076007, 0.147388, 0.031063,
0.058315, 0.095984, 0.070168,
0.064621, -0.030730, 0.067560,
0.076007, 0.147388, 0.031063,
0.064621, -0.030730, 0.067560,
0.073982, -0.095684, 0.025819,
0.040259, -0.217094, 0.005641,
0.000000, -0.108875, 0.025819,
0.000000, -0.222502, 0.003641,
0.040259, -0.217094, 0.005641,
0.073982, -0.095684, 0.025819,
0.000000, -0.108875, 0.025819,
0.079199, 0.213488, 0.028436,
-0.000000, 0.223324, 0.031063,
0.000000, 0.164337, 0.033899,
0.076007, 0.147388, 0.031063,
0.079199, 0.213488, 0.028436,
0.000000, 0.164337, 0.033899,
0.089622, 0.216872, -0.017344,
-0.000000, 0.235584, -0.045947,
-0.000000, 0.231315, -0.002847,
0.089622, 0.216872, -0.017344,
0.091384, 0.218268, -0.049139,
-0.000000, 0.235584, -0.045947,
0.085723, 0.215486, 0.008146,
0.089622, 0.216872, -0.017344,
-0.000000, 0.231315, -0.002847,
0.040259, -0.217094, 0.005641,
0.000000, -0.235584, -0.014130,
0.040259, -0.230176, -0.014130,
0.040259, -0.217094, 0.005641,
0.000000, -0.222502, 0.003641,
0.000000, -0.235584, -0.014130,
0.040259, -0.230176, -0.014130,
0.000000, -0.235584, -0.014130,
0.000000, -0.228639, -0.051801,
0.040259, -0.217094, 0.005641,
0.040259, -0.230176, -0.014130,
0.084643, -0.218313, -0.014516,
0.040259, -0.217094, 0.005641,
0.084643, -0.218313, -0.014516,
0.078856, -0.197691, 0.013175,
0.078856, -0.197691, 0.013175,
0.073982, -0.095684, 0.025819,
0.040259, -0.217094, 0.005641,
-0.078856, -0.197691, 0.013175,
-0.040258, -0.217094, 0.005641,
-0.073981, -0.095684, 0.025819,
-0.040258, -0.217094, 0.005641,
-0.078856, -0.197691, 0.013175,
-0.084642, -0.218313, -0.014516,
-0.040258, -0.217094, 0.005641,
-0.084642, -0.218313, -0.014516,
-0.040258, -0.230176, -0.014130,
-0.040258, -0.230176, -0.014130,
0.000000, -0.228639, -0.051801,
0.000000, -0.235584, -0.014130,
-0.040258, -0.217094, 0.005641,
0.000000, -0.235584, -0.014130,
0.000000, -0.222502, 0.003641,
-0.040258, -0.217094, 0.005641,
-0.040258, -0.230176, -0.014130,
0.000000, -0.235584, -0.014130,
-0.085723, 0.215486, 0.008146,
-0.000000, 0.231315, -0.002847,
-0.089622, 0.216872, -0.017343,
-0.089622, 0.216872, -0.017343,
-0.000000, 0.235584, -0.045947,
-0.091384, 0.218268, -0.049139,
-0.089622, 0.216872, -0.017343,
-0.000000, 0.231315, -0.002847,
-0.000000, 0.235584, -0.045947,
-0.076007, 0.147388, 0.031063,
0.000000, 0.164337, 0.033899,
-0.079199, 0.213488, 0.028436,
-0.079199, 0.213488, 0.028436,
0.000000, 0.164337, 0.033899,
-0.000000, 0.223324, 0.031063,
-0.040258, -0.217094, 0.005641,
0.000000, -0.108875, 0.025819,
-0.073981, -0.095684, 0.025819,
-0.040258, -0.217094, 0.005641,
0.000000, -0.222502, 0.003641,
0.000000, -0.108875, 0.025819,
-0.076007, 0.147388, 0.031063,
-0.073981, -0.095684, 0.025819,
-0.064621, -0.030730, 0.067560,
-0.076007, 0.147388, 0.031063,
-0.064621, -0.030730, 0.067560,
-0.058315, 0.095984, 0.070168,
-0.076007, 0.147388, 0.031063,
0.000000, 0.100147, 0.073609,
0.000000, 0.164337, 0.033899,
-0.076007, 0.147388, 0.031063,
-0.058315, 0.095984, 0.070168,
0.000000, 0.100147, 0.073609,
0.000000, -0.108875, 0.025819,
0.000000, -0.038623, 0.072709,
-0.073981, -0.095684, 0.025819,
-0.073981, -0.095684, 0.025819,
0.000000, -0.038623, 0.072709,
-0.064621, -0.030730, 0.067560,
-0.091865, 0.155831, -0.073609,
-0.091865, 0.119971, -0.073609,
-0.091865, 0.173761, -0.042553,
-0.091865, 0.173761, -0.042553,
-0.091865, 0.119971, -0.073609,
-0.091865, 0.102041, -0.042553,
-0.091865, 0.173761, -0.042553,
-0.091865, 0.102041, -0.042553,
-0.091865, 0.155831, -0.011497,
-0.091865, 0.155831, -0.011497,
-0.091865, 0.102041, -0.042553,
-0.091865, 0.119971, -0.011497,
-0.089274, -0.124169, -0.011497,
-0.089274, -0.177959, -0.042553,
-0.089274, -0.160029, -0.011497,
-0.089274, -0.106239, -0.042553,
-0.089274, -0.177959, -0.042553,
-0.089274, -0.124169, -0.011497,
-0.089274, -0.106239, -0.042553,
-0.089274, -0.160029, -0.073609,
-0.089274, -0.177959, -0.042553,
-0.089274, -0.124169, -0.073609,
-0.089274, -0.160029, -0.073609,
-0.089274, -0.106239, -0.042553,
-0.058315, 0.095984, 0.070168,
-0.064621, -0.030730, 0.067560,
0.000000, 0.100147, 0.073609,
-0.064621, -0.030730, 0.067560,
0.000000, -0.038623, 0.072709,
0.000000, 0.100147, 0.073609,
0.058315, 0.095984, 0.070168,
0.000000, 0.100147, 0.073609,
0.064621, -0.030730, 0.067560,
0.000000, 0.100147, 0.073609,
0.000000, -0.038623, 0.072709,
0.064621, -0.030730, 0.067560,
-0.040258, -0.230176, -0.014130,
-0.084642, -0.218313, -0.014516,
-0.087109, -0.207383, -0.051801,
-0.040258, -0.230176, -0.014130,
-0.087109, -0.207383, -0.051801,
0.000000, -0.228639, -0.051801,
0.087109, -0.207383, -0.051801,
0.084643, -0.218313, -0.014516,
0.040259, -0.230176, -0.014130,
0.087109, -0.207383, -0.051801,
0.040259, -0.230176, -0.014130,
0.000000, -0.228639, -0.051801,
0.085723, 0.215486, 0.008146,
-0.000000, 0.231315, -0.002847,
-0.000000, 0.223324, 0.031063,
0.085723, 0.215486, 0.008146,
-0.000000, 0.223324, 0.031063,
0.079199, 0.213488, 0.028436,
-0.000000, 0.223324, 0.031063,
-0.000000, 0.231315, -0.002847,
-0.085723, 0.215486, 0.008146,
-0.000000, 0.223324, 0.031063,
-0.085723, 0.215486, 0.008146,
-0.079199, 0.213488, 0.028436,
0.087109, -0.207383, -0.051801,
0.091384, 0.218268, -0.049139,
0.089622, 0.216872, -0.017344,
0.087109, -0.207383, -0.051801,
0.089622, 0.216872, -0.017344,
0.084643, -0.218313, -0.014516,
0.084643, -0.218313, -0.014516,
0.089622, 0.216872, -0.017344,
0.085723, 0.215486, 0.008146,
0.084643, -0.218313, -0.014516,
0.085723, 0.215486, 0.008146,
0.078856, -0.197691, 0.013175,
0.078856, -0.197691, 0.013175,
0.085723, 0.215486, 0.008146,
0.076007, 0.147388, 0.031063,
0.078856, -0.197691, 0.013175,
0.076007, 0.147388, 0.031063,
0.073982, -0.095684, 0.025819,
-0.078856, -0.197691, 0.013175,
-0.073981, -0.095684, 0.025819,
-0.076007, 0.147388, 0.031063,
-0.078856, -0.197691, 0.013175,
-0.076007, 0.147388, 0.031063,
-0.085723, 0.215486, 0.008146,
-0.084643, -0.218313, -0.014516,
-0.078856, -0.197691, 0.013175,
-0.085723, 0.215486, 0.008146,
-0.084643, -0.218313, -0.014516,
-0.085723, 0.215486, 0.008146,
-0.089622, 0.216872, -0.017344,
-0.087109, -0.207383, -0.051801,
-0.084643, -0.218313, -0.014516,
-0.089622, 0.216872, -0.017344,
-0.087109, -0.207383, -0.051801,
-0.089622, 0.216872, -0.017344,
-0.091384, 0.218268, -0.049139,
-0.079199, 0.213488, 0.028436,
-0.085723, 0.215486, 0.008146,
-0.076007, 0.147388, 0.031063,
]

indices = [
0, 1, 2,
3, 4, 5,
6, 7, 8,
9, 10, 11,
12, 13, 14,
15, 16, 17,
18, 19, 20,
21, 22, 23,
24, 25, 26,
27, 28, 29,
30, 31, 32,
33, 34, 35,
36, 37, 38,
39, 40, 41,
42, 43, 44,
45, 46, 47,
48, 49, 50,
51, 52, 53,
54, 55, 56,
57, 58, 59,
60, 61, 62,
63, 64, 65,
66, 67, 68,
69, 70, 71,
72, 73, 74,
75, 76, 77,
78, 79, 80,
81, 82, 83,
84, 85, 86,
87, 88, 89,
90, 91, 92,
93, 94, 95,
96, 97, 98,
99, 100, 101,
102, 103, 104,
105, 106, 107,
108, 109, 110,
111, 112, 113,
114, 115, 116,
117, 118, 119,
120, 121, 122,
123, 124, 125,
126, 127, 128,
129, 130, 131,
132, 133, 134,
135, 136, 137,
138, 139, 140,
141, 142, 143,
144, 145, 146,
147, 148, 149,
150, 151, 152,
153, 154, 155,
156, 157, 158,
159, 160, 161,
162, 163, 164,
165, 166, 167,
168, 169, 170,
171, 172, 173,
174, 175, 176,
177, 178, 179,
180, 181, 182,
183, 184, 185,
186, 187, 188,
189, 190, 191,
192, 193, 194,
195, 196, 197,
198, 199, 200,
201, 202, 203,
204, 205, 206,
207, 208, 209,
210, 211, 212,
213, 214, 215,
216, 217, 218,
219, 220, 221,
222, 223, 224,
225, 226, 227,
228, 229, 230,
231, 232, 233,
234, 235, 236,
237, 238, 239,
]

normals = [
1.000000, 0.000000, 0.000000,
1.000000, 0.000000, 0.000000,
1.000000, 0.000000, 0.000000,
1.000000, 0.000000, 0.000000,
1.000000, 0.000000, 0.000000,
1.000000, 0.000000, 0.000000,
1.000000, 0.000000, 0.000000,
1.000000, 0.000000, 0.000000,
1.000000, 0.000000, 0.000000,
1.000000, 0.000000, 0.000000,
1.000000, 0.000000, 0.000000,
1.000000, 0.000000, 0.000000,
0.952391, -0.033937, 0.302896,
0.923429, -0.020966, 0.383160,
0.965850, -0.017304, 0.258400,
1.000000, 0.000000, 0.000000,
1.000000, 0.000000, 0.000000,
1.000000, 0.000000, 0.000000,
1.000000, 0.000000, 0.000000,
1.000000, 0.000000, 0.000000,
1.000000, 0.000000, 0.000000,
1.000000, 0.000000, 0.000000,
1.000000, 0.000000, 0.000000,
1.000000, 0.000000, 0.000000,
1.000000, 0.000000, 0.000000,
1.000000, 0.000000, 0.000000,
1.000000, 0.000000, 0.000000,
0.114750, -0.537614, 0.835322,
0.130924, -0.522538, 0.842494,
0.000000, -0.541215, 0.840877,
0.000000, -0.555132, 0.831721,
0.114750, -0.537614, 0.835322,
0.000000, -0.541215, 0.840877,
0.118473, 0.552446, 0.825068,
0.000000, 0.556352, 0.830927,
0.089267, 0.583361, 0.807245,
0.118473, 0.552446, 0.825068,
0.000000, 0.526078, 0.850398,
0.000000, 0.556352, 0.830927,
0.937986, 0.011017, 0.346446,
0.892361, 0.035127, 0.449934,
0.937986, 0.011017, 0.346446,
0.937986, 0.011017, 0.346446,
0.937986, 0.011017, 0.346446,
0.971068, -0.013215, 0.238350,
0.003815, -0.181890, 0.983276,
0.000000, -0.181890, 0.983306,
0.000000, -0.191565, 0.981475,
0.003815, -0.181890, 0.983276,
0.030671, -0.172155, 0.984588,
0.000000, -0.181890, 0.983306,
0.042329, 0.042726, 0.998169,
0.000000, 0.048006, 0.998840,
0.000000, 0.042756, 0.999084,
0.045595, 0.037446, 0.998230,
0.042329, 0.042726, 0.998169,
0.000000, 0.042756, 0.999084,
0.177496, 0.981109, 0.076693,
0.000000, 0.997040, 0.076540,
0.000000, 0.990600, 0.136631,
0.177496, 0.981109, 0.076693,
0.187689, 0.980743, 0.053438,
0.000000, 0.997040, 0.076540,
0.149083, 0.977630, 0.148228,
0.177496, 0.981109, 0.076693,
0.000000, 0.990600, 0.136631,
0.094943, -0.816157, 0.569933,
0.000000, -0.819880, 0.572527,
0.111301, -0.828761, 0.548357,
0.094943, -0.816157, 0.569933,
0.000000, -0.805322, 0.592822,
0.000000, -0.819880, 0.572527,
0.202429, -0.949400, -0.240028,
0.000000, -0.983398, -0.181280,
0.000000, -0.972015, -0.234870,
0.239814, -0.781915, 0.575365,
0.221992, -0.813135, 0.538011,
0.239814, -0.781915, 0.575365,
0.239814, -0.781915, 0.575365,
0.239814, -0.781915, 0.575365,
0.256996, -0.748558, 0.611194,
-0.127628, -0.127995, 0.983520,
-0.127628, -0.127995, 0.983520,
-0.127628, -0.127995, 0.983520,
0.127628, -0.127995, 0.983520,
0.127628, -0.127995, 0.983520,
0.127628, -0.127995, 0.983520,
-0.239814, -0.781915, 0.575365,
-0.256996, -0.748558, 0.611194,
-0.239814, -0.781915, 0.575365,
-0.239814, -0.781915, 0.575365,
-0.239814, -0.781915, 0.575365,
-0.221992, -0.813135, 0.538011,
-0.202429, -0.949400, -0.240028,
0.000000, -0.972015, -0.234870,
0.000000, -0.983398, -0.181280,
-0.094913, -0.816157, 0.569933,
0.000000, -0.819880, 0.572527,
0.000000, -0.805322, 0.592822,
-0.094913, -0.816157, 0.569933,
-0.111301, -0.828761, 0.548357,
0.000000, -0.819880, 0.572527,
-0.149083, 0.977630, 0.148228,
0.000000, 0.990600, 0.136631,
-0.177496, 0.981109, 0.076693,
-0.177496, 0.981109, 0.076693,
0.000000, 0.997040, 0.076540,
-0.187689, 0.980743, 0.053438,
-0.177496, 0.981109, 0.076693,
0.000000, 0.990600, 0.136631,
0.000000, 0.997040, 0.076540,
-0.045595, 0.037446, 0.998230,
0.000000, 0.042756, 0.999084,
-0.042329, 0.042726, 0.998169,
-0.042329, 0.042726, 0.998169,
0.000000, 0.042756, 0.999084,
0.000000, 0.048006, 0.998840,
-0.003815, -0.181890, 0.983276,
0.000000, -0.181890, 0.983306,
-0.030671, -0.172155, 0.984588,
-0.003815, -0.181890, 0.983276,
0.000000, -0.191565, 0.981475,
0.000000, -0.181890, 0.983306,
-0.937986, 0.011017, 0.346446,
-0.971068, -0.013215, 0.238350,
-0.937986, 0.011017, 0.346446,
-0.937986, 0.011017, 0.346446,
-0.937986, 0.011017, 0.346446,
-0.892361, 0.035127, 0.449934,
-0.118473, 0.552446, 0.825068,
0.000000, 0.556352, 0.830927,
0.000000, 0.526078, 0.850398,
-0.118473, 0.552446, 0.825068,
-0.089267, 0.583361, 0.807245,
0.000000, 0.556352, 0.830927,
0.000000, -0.555132, 0.831721,
0.000000, -0.541215, 0.840877,
-0.114750, -0.537614, 0.835322,
-0.114750, -0.537614, 0.835322,
0.000000, -0.541215, 0.840877,
-0.130924, -0.522538, 0.842494,
-1.000000, 0.000000, 0.000000,
-1.000000, 0.000000, 0.000000,
-1.000000, 0.000000, 0.000000,
-1.000000, 0.000000, 0.000000,
-1.000000, 0.000000, 0.000000,
-1.000000, 0.000000, 0.000000,
-1.000000, 0.000000, 0.000000,
-1.000000, 0.000000, 0.000000,
-1.000000, 0.000000, 0.000000,
-1.000000, 0.000000, 0.000000,
-1.000000, 0.000000, 0.000000,
-1.000000, 0.000000, 0.000000,
-1.000000, 0.000000, 0.000000,
-1.000000, 0.000000, 0.000000,
-1.000000, 0.000000, 0.000000,
-1.000000, 0.000000, 0.000000,
-1.000000, 0.000000, 0.000000,
-1.000000, 0.000000, 0.000000,
-1.000000, 0.000000, 0.000000,
-1.000000, 0.000000, 0.000000,
-1.000000, 0.000000, 0.000000,
-1.000000, 0.000000, 0.000000,
-1.000000, 0.000000, 0.000000,
-1.000000, 0.000000, 0.000000,
-0.057619, -0.017670, 0.998169,
-0.068911, -0.012055, 0.997528,
0.000000, -0.012085, 0.999908,
-0.068911, -0.012055, 0.997528,
0.000000, -0.006470, 0.999969,
0.000000, -0.012085, 0.999908,
0.057619, -0.017670, 0.998169,
0.000000, -0.012085, 0.999908,
0.068911, -0.012055, 0.997528,
0.000000, -0.012085, 0.999908,
0.000000, -0.006470, 0.999969,
0.068911, -0.012055, 0.997528,
-0.202429, -0.949400, -0.240028,
-0.247414, -0.934049, -0.257454,
-0.237465, -0.933287, -0.269326,
-0.202429, -0.949400, -0.240028,
-0.237465, -0.933287, -0.269326,
0.000000, -0.972015, -0.234870,
0.237465, -0.933287, -0.269326,
0.247414, -0.934049, -0.257454,
0.202429, -0.949400, -0.240028,
0.237465, -0.933287, -0.269326,
0.202429, -0.949400, -0.240028,
0.000000, -0.972015, -0.234870,
0.149083, 0.977630, 0.148228,
0.000000, 0.990600, 0.136631,
0.000000, 0.982879, 0.184088,
0.149083, 0.977630, 0.148228,
0.000000, 0.982879, 0.184088,
0.126560, 0.982360, 0.137425,
0.000000, 0.982879, 0.184088,
0.000000, 0.990600, 0.136631,
-0.149083, 0.977630, 0.148228,
0.000000, 0.982879, 0.184088,
-0.149083, 0.977630, 0.148228,
-0.126560, 0.982360, 0.137425,
0.998199, -0.010681, 0.058809,
0.998413, -0.010346, 0.054872,
0.995911, -0.010559, 0.089511,
0.998199, -0.010681, 0.058809,
0.995911, -0.010559, 0.089511,
0.989654, -0.011658, 0.142827,
0.989654, -0.011658, 0.142827,
0.995911, -0.010559, 0.089511,
0.965850, -0.017304, 0.258400,
0.989654, -0.011658, 0.142827,
0.965850, -0.017304, 0.258400,
0.934843, -0.014222, 0.354747,
0.934843, -0.014222, 0.354747,
0.965850, -0.017304, 0.258400,
0.923429, -0.020966, 0.383160,
0.934843, -0.014222, 0.354747,
0.923429, -0.020966, 0.383160,
0.876736, -0.017670, 0.480605,
-0.934843, -0.014222, 0.354747,
-0.876736, -0.017670, 0.480605,
-0.923429, -0.020966, 0.383160,
-0.934843, -0.014222, 0.354747,
-0.923429, -0.020966, 0.383160,
-0.965850, -0.017304, 0.258400,
-0.989654, -0.011658, 0.142827,
-0.934843, -0.014222, 0.354747,
-0.965850, -0.017304, 0.258400,
-0.989654, -0.011658, 0.142827,
-0.965850, -0.017304, 0.258400,
-0.995911, -0.010559, 0.089511,
-0.998199, -0.010681, 0.058809,
-0.989654, -0.011658, 0.142827,
-0.995911, -0.010559, 0.089511,
-0.998199, -0.010681, 0.058809,
-0.995911, -0.010559, 0.089511,
-0.998413, -0.010346, 0.054872,
-0.952391, -0.033937, 0.302896,
-0.965850, -0.017304, 0.258400,
-0.923429, -0.020966, 0.383160,
]

texcoords = [
0.797443, 0.718995,
0.826724, 0.769711,
0.738881, 0.718995,
0.826724, 0.769711,
0.709600, 0.769711,
0.738881, 0.718995,
0.826724, 0.769711,
0.797443, 0.820428,
0.709600, 0.769711,
0.797443, 0.820428,
0.738881, 0.820428,
0.709600, 0.769711,
0.700465, 0.561232,
0.586635, 0.592938,
0.695678, 0.523341,
0.760808, 0.592938,
0.710091, 0.563657,
0.710091, 0.505095,
0.811524, 0.563657,
0.760808, 0.592938,
0.710091, 0.505095,
0.811524, 0.563657,
0.710091, 0.505095,
0.760808, 0.475814,
0.811524, 0.505095,
0.811524, 0.563657,
0.760808, 0.475814,
0.709600, 0.736825,
0.694737, 0.862341,
0.588784, 0.856257,
0.588784, 0.718995,
0.709600, 0.736825,
0.588784, 0.856257,
0.954504, 0.104044,
0.830380, 0.002998,
0.924927, 0.000000,
0.954504, 0.104044,
0.830380, 0.124916,
0.830380, 0.002998,
0.467967, 0.928187,
0.385493, 1.000000,
0.178307, 0.996005,
0.467967, 0.928187,
0.178307, 0.996005,
0.070923, 0.928187,
0.186547, 0.602226,
0.120816, 0.781908,
0.120816, 0.592938,
0.186547, 0.602226,
0.241633, 0.803108,
0.120816, 0.781908,
0.467967, 0.912360,
0.338630, 0.928187,
0.338630, 0.831819,
0.462802, 0.804410,
0.467967, 0.912360,
0.338630, 0.831819,
0.762743, 0.668014,
0.617203, 0.717794,
0.617203, 0.648582,
0.762743, 0.668014,
0.766440, 0.718995,
0.617203, 0.717794,
0.755833, 0.627026,
0.762743, 0.668014,
0.617203, 0.648582,
0.897746, 0.636583,
0.832184, 0.592938,
0.897929, 0.598095,
0.897746, 0.636583,
0.832184, 0.628764,
0.832184, 0.592938,
0.913011, 0.191123,
0.848509, 0.192680,
0.848509, 0.131836,
0.817227, 0.574958,
0.811524, 0.536667,
0.886545, 0.535770,
0.817227, 0.574958,
0.886545, 0.535770,
0.886545, 0.592938,
0.048136, 0.854908,
0.205777, 0.906708,
0.000000, 0.906708,
0.048136, 0.854908,
0.000000, 0.803108,
0.205777, 0.803108,
0.836221, 0.674940,
0.767123, 0.693747,
0.766440, 0.636583,
0.836221, 0.674940,
0.766440, 0.636583,
0.841466, 0.636583,
0.784007, 0.191123,
0.848509, 0.131836,
0.848509, 0.192680,
0.766623, 0.636583,
0.832184, 0.592938,
0.832184, 0.628764,
0.766623, 0.636583,
0.766440, 0.598095,
0.832184, 0.592938,
0.478573, 0.627027,
0.617203, 0.648582,
0.471664, 0.668014,
0.471664, 0.668014,
0.617203, 0.717794,
0.467967, 0.718995,
0.471664, 0.668014,
0.617203, 0.648582,
0.617203, 0.717794,
0.214459, 0.804410,
0.338630, 0.831819,
0.209294, 0.912360,
0.209294, 0.912360,
0.338630, 0.831819,
0.338630, 0.928187,
0.055086, 0.602226,
0.120816, 0.781908,
0.000000, 0.803108,
0.055086, 0.602226,
0.120816, 0.592938,
0.120816, 0.781908,
0.865011, 0.934155,
0.467967, 0.934155,
0.575351, 0.866336,
0.865011, 0.934155,
0.575351, 0.866336,
0.782537, 0.862341,
0.706255, 0.104044,
0.830380, 0.002998,
0.830380, 0.124916,
0.706255, 0.104044,
0.735833, 0.000000,
0.830380, 0.002998,
0.588784, 0.718995,
0.588784, 0.856257,
0.467967, 0.736825,
0.467967, 0.736825,
0.588784, 0.856257,
0.482830, 0.862341,
0.794098, 0.294113,
0.735536, 0.294113,
0.823379, 0.243397,
0.823379, 0.243397,
0.735536, 0.294113,
0.706255, 0.243397,
0.823379, 0.243397,
0.706255, 0.243397,
0.794098, 0.192680,
0.794098, 0.192680,
0.706255, 0.243397,
0.735536, 0.192680,
0.811524, 0.366895,
0.710091, 0.366895,
0.760808, 0.337614,
0.811524, 0.425457,
0.710091, 0.366895,
0.811524, 0.366895,
0.811524, 0.425457,
0.710091, 0.425457,
0.710091, 0.366895,
0.760808, 0.454738,
0.710091, 0.425457,
0.811524, 0.425457,
0.456330, 0.804410,
0.249099, 0.804410,
0.467967, 0.709481,
0.249099, 0.804410,
0.241633, 0.698025,
0.467967, 0.709481,
0.465975, 0.613862,
0.467967, 0.709481,
0.259803, 0.592938,
0.467967, 0.709481,
0.241633, 0.698025,
0.259803, 0.592938,
0.784007, 0.191123,
0.711174, 0.186560,
0.706255, 0.124916,
0.784007, 0.191123,
0.706255, 0.124916,
0.848509, 0.131836,
0.990763, 0.124916,
0.985844, 0.186560,
0.913011, 0.191123,
0.990763, 0.124916,
0.913011, 0.191123,
0.848509, 0.131836,
0.755833, 0.627026,
0.617203, 0.648582,
0.617203, 0.592938,
0.755833, 0.627026,
0.617203, 0.592938,
0.745164, 0.594421,
0.617203, 0.592938,
0.617203, 0.648582,
0.478573, 0.627027,
0.617203, 0.592938,
0.478573, 0.627027,
0.489243, 0.594421,
0.021912, 0.337614,
0.710091, 0.341940,
0.703605, 0.431723,
0.021912, 0.337614,
0.703605, 0.431723,
0.000000, 0.427300,
0.000000, 0.427300,
0.703605, 0.431723,
0.695678, 0.523341,
0.000000, 0.427300,
0.695678, 0.523341,
0.057993, 0.523341,
0.057993, 0.523341,
0.695678, 0.523341,
0.586635, 0.592938,
0.057993, 0.523341,
0.586635, 0.592938,
0.053431, 0.592938,
0.038220, 0.083178,
0.496478, 0.000000,
0.503414, 0.060526,
0.038220, 0.083178,
0.503414, 0.060526,
0.706255, 0.156615,
0.000000, 0.171738,
0.038220, 0.083178,
0.706255, 0.156615,
0.000000, 0.171738,
0.706255, 0.156615,
0.701894, 0.248677,
0.017091, 0.264290,
0.000000, 0.171738,
0.701894, 0.248677,
0.017091, 0.264290,
0.701894, 0.248677,
0.695702, 0.337614,
0.706255, 0.090347,
0.706255, 0.156615,
0.503414, 0.060526,
]

colorsf = [
1.000000, 0.988235, 1.000000, 1.000000,
1.000000, 0.988235, 1.000000, 1.000000,
1.000000, 0.988235, 1.000000, 1.000000,
1.000000, 0.988235, 1.000000, 1.000000,
1.000000, 0.988235, 1.000000, 1.000000,
1.000000, 0.988235, 1.000000, 1.000000,
1.000000, 0.988235, 1.000000, 1.000000,
1.000000, 0.988235, 1.000000, 1.000000,
1.000000, 0.988235, 1.000000, 1.000000,
1.000000, 0.988235, 1.000000, 1.000000,
1.000000, 0.988235, 1.000000, 1.000000,
1.000000, 0.988235, 1.000000, 1.000000,
1.000000, 0.988235, 1.000000, 1.000000,
1.000000, 0.988235, 1.000000, 1.000000,
1.000000, 0.988235, 1.000000, 1.000000,
1.000000, 0.988235, 1.000000, 1.000000,
1.000000, 0.988235, 1.000000, 1.000000,
1.000000, 0.988235, 1.000000, 1.000000,
1.000000, 0.988235, 1.000000, 1.000000,
1.000000, 0.988235, 1.000000, 1.000000,
1.000000, 0.988235, 1.000000, 1.000000,
1.000000, 0.988235, 1.000000, 1.000000,
1.000000, 0.988235, 1.000000, 1.000000,
1.000000, 0.988235, 1.000000, 1.000000,
1.000000, 0.988235, 1.000000, 1.000000,
1.000000, 0.988235, 1.000000, 1.000000,
1.000000, 0.988235, 1.000000, 1.000000,
1.000000, 0.988235, 1.000000, 1.000000,
1.000000, 0.988235, 1.000000, 1.000000,
1.000000, 0.988235, 1.000000, 1.000000,
1.000000, 0.988235, 1.000000, 1.000000,
1.000000, 0.988235, 1.000000, 1.000000,
1.000000, 0.988235, 1.000000, 1.000000,
1.000000, 0.988235, 1.000000, 1.000000,
1.000000, 0.988235, 1.000000, 1.000000,
1.000000, 0.988235, 1.000000, 1.000000,
1.000000, 0.988235, 1.000000, 1.000000,
1.000000, 0.988235, 1.000000, 1.000000,
1.000000, 0.988235, 1.000000, 1.000000,
1.000000, 0.988235, 1.000000, 1.000000,
1.000000, 0.988235, 1.000000, 1.000000,
1.000000, 0.988235, 1.000000, 1.000000,
1.000000, 0.988235, 1.000000, 1.000000,
1.000000, 0.988235, 1.000000, 1.000000,
1.000000, 0.988235, 1.000000, 1.000000,
1.000000, 0.988235, 1.000000, 1.000000,
1.000000, 0.988235, 1.000000, 1.000000,
1.000000, 0.988235, 1.000000, 1.000000,
1.000000, 0.988235, 1.000000, 1.000000,
1.000000, 0.988235, 1.000000, 1.000000,
1.000000, 0.988235, 1.000000, 1.000000,
1.000000, 0.988235, 1.000000, 1.000000,
1.000000, 0.988235, 1.000000, 1.000000,
1.000000, 0.988235, 1.000000, 1.000000,
1.000000, 0.988235, 1.000000, 1.000000,
1.000000, 0.988235, 1.000000, 1.000000,
1.000000, 0.988235, 1.000000, 1.000000,
1.000000, 0.988235, 1.000000, 1.000000,
1.000000, 0.988235, 1.000000, 1.000000,
1.000000, 0.988235, 1.000000, 1.000000,
1.000000, 0.988235, 1.000000, 1.000000,
1.000000, 0.988235, 1.000000, 1.000000,
1.000000, 0.988235, 1.000000, 1.000000,
1.000000, 0.988235, 1.000000, 1.000000,
1.000000, 0.988235, 1.000000, 1.000000,
1.000000, 0.988235, 1.000000, 1.000000,
1.000000, 0.988235, 1.000000, 1.000000,
1.000000, 0.988235, 1.000000, 1.000000,
1.000000, 0.988235, 1.000000, 1.000000,
1.000000, 0.988235, 1.000000, 1.000000,
1.000000, 0.988235, 1.000000, 1.000000,
1.000000, 0.988235, 1.000000, 1.000000,
1.000000, 0.988235, 1.000000, 1.000000,
1.000000, 0.988235, 1.000000, 1.000000,
1.000000, 0.988235, 1.000000, 1.000000,
1.000000, 0.988235, 1.000000, 1.000000,
1.000000, 0.988235, 1.000000, 1.000000,
1.000000, 0.988235, 1.000000, 1.000000,
1.000000, 0.988235, 1.000000, 1.000000,
1.000000, 0.988235, 1.000000, 1.000000,
1.000000, 0.988235, 1.000000, 1.000000,
1.000000, 0.988235, 1.000000, 1.000000,
1.000000, 0.988235, 1.000000, 1.000000,
1.000000, 0.988235, 1.000000, 1.000000,
1.000000, 0.988235, 1.000000, 1.000000,
1.000000, 0.988235, 1.000000, 1.000000,
1.000000, 0.988235, 1.000000, 1.000000,
1.000000, 0.988235, 1.000000, 1.000000,
1.000000, 0.988235, 1.000000, 1.000000,
1.000000, 0.988235, 1.000000, 1.000000,
1.000000, 0.988235, 1.000000, 1.000000,
1.000000, 0.988235, 1.000000, 1.000000,
1.000000, 0.988235, 1.000000, 1.000000,
1.000000, 0.988235, 1.000000, 1.000000,
1.000000, 0.988235, 1.000000, 1.000000,
1.000000, 0.988235, 1.000000, 1.000000,
1.000000, 0.988235, 1.000000, 1.000000,
1.000000, 0.988235, 1.000000, 1.000000,
1.000000, 0.988235, 1.000000, 1.000000,
1.000000, 0.988235, 1.000000, 1.000000,
1.000000, 0.988235, 1.000000, 1.000000,
1.000000, 0.988235, 1.000000, 1.000000,
1.000000, 0.988235, 1.000000, 1.000000,
1.000000, 0.988235, 1.000000, 1.000000,
1.000000, 0.988235, 1.000000, 1.000000,
1.000000, 0.988235, 1.000000, 1.000000,
1.000000, 0.988235, 1.000000, 1.000000,
1.000000, 0.988235, 1.000000, 1.000000,
1.000000, 0.988235, 1.000000, 1.000000,
1.000000, 0.988235, 1.000000, 1.000000,
1.000000, 0.988235, 1.000000, 1.000000,
1.000000, 0.988235, 1.000000, 1.000000,
1.000000, 0.988235, 1.000000, 1.000000,
1.000000, 0.988235, 1.000000, 1.000000,
1.000000, 0.988235, 1.000000, 1.000000,
1.000000, 0.988235, 1.000000, 1.000000,
1.000000, 0.988235, 1.000000, 1.000000,
1.000000, 0.988235, 1.000000, 1.000000,
1.000000, 0.988235, 1.000000, 1.000000,
1.000000, 0.988235, 1.000000, 1.000000,
1.000000, 0.988235, 1.000000, 1.000000,
1.000000, 0.988235, 1.000000, 1.000000,
1.000000, 0.988235, 1.000000, 1.000000,
1.000000, 0.988235, 1.000000, 1.000000,
1.000000, 0.988235, 1.000000, 1.000000,
1.000000, 0.988235, 1.000000, 1.000000,
1.000000, 0.988235, 1.000000, 1.000000,
1.000000, 0.988235, 1.000000, 1.000000,
1.000000, 0.988235, 1.000000, 1.000000,
1.000000, 0.988235, 1.000000, 1.000000,
1.000000, 0.988235, 1.000000, 1.000000,
1.000000, 0.988235, 1.000000, 1.000000,
1.000000, 0.988235, 1.000000, 1.000000,
1.000000, 0.988235, 1.000000, 1.000000,
1.000000, 0.988235, 1.000000, 1.000000,
1.000000, 0.988235, 1.000000, 1.000000,
1.000000, 0.988235, 1.000000, 1.000000,
1.000000, 0.988235, 1.000000, 1.000000,
1.000000, 0.988235, 1.000000, 1.000000,
1.000000, 0.988235, 1.000000, 1.000000,
1.000000, 0.988235, 1.000000, 1.000000,
1.000000, 0.988235, 1.000000, 1.000000,
1.000000, 0.988235, 1.000000, 1.000000,
1.000000, 0.988235, 1.000000, 1.000000,
1.000000, 0.988235, 1.000000, 1.000000,
1.000000, 0.988235, 1.000000, 1.000000,
1.000000, 0.988235, 1.000000, 1.000000,
1.000000, 0.988235, 1.000000, 1.000000,
1.000000, 0.988235, 1.000000, 1.000000,
1.000000, 0.988235, 1.000000, 1.000000,
1.000000, 0.988235, 1.000000, 1.000000,
1.000000, 0.988235, 1.000000, 1.000000,
1.000000, 0.988235, 1.000000, 1.000000,
1.000000, 0.988235, 1.000000, 1.000000,
1.000000, 0.988235, 1.000000, 1.000000,
1.000000, 0.988235, 1.000000, 1.000000,
1.000000, 0.988235, 1.000000, 1.000000,
1.000000, 0.988235, 1.000000, 1.000000,
1.000000, 0.988235, 1.000000, 1.000000,
1.000000, 0.988235, 1.000000, 1.000000,
1.000000, 0.988235, 1.000000, 1.000000,
1.000000, 0.988235, 1.000000, 1.000000,
1.000000, 0.988235, 1.000000, 1.000000,
1.000000, 0.988235, 1.000000, 1.000000,
1.000000, 0.988235, 1.000000, 1.000000,
1.000000, 0.988235, 1.000000, 1.000000,
1.000000, 0.988235, 1.000000, 1.000000,
1.000000, 0.988235, 1.000000, 1.000000,
1.000000, 0.988235, 1.000000, 1.000000,
1.000000, 0.988235, 1.000000, 1.000000,
1.000000, 0.988235, 1.000000, 1.000000,
1.000000, 0.988235, 1.000000, 1.000000,
1.000000, 0.988235, 1.000000, 1.000000,
1.000000, 0.988235, 1.000000, 1.000000,
1.000000, 0.988235, 1.000000, 1.000000,
1.000000, 0.988235, 1.000000, 1.000000,
1.000000, 0.988235, 1.000000, 1.000000,
1.000000, 0.988235, 1.000000, 1.000000,
1.000000, 0.988235, 1.000000, 1.000000,
1.000000, 0.988235, 1.000000, 1.000000,
1.000000, 0.988235, 1.000000, 1.000000,
1.000000, 0.988235, 1.000000, 1.000000,
1.000000, 0.988235, 1.000000, 1.000000,
1.000000, 0.988235, 1.000000, 1.000000,
1.000000, 0.988235, 1.000000, 1.000000,
1.000000, 0.988235, 1.000000, 1.000000,
1.000000, 0.988235, 1.000000, 1.000000,
1.000000, 0.988235, 1.000000, 1.000000,
1.000000, 0.988235, 1.000000, 1.000000,
1.000000, 0.988235, 1.000000, 1.000000,
1.000000, 0.988235, 1.000000, 1.000000,
1.000000, 0.988235, 1.000000, 1.000000,
1.000000, 0.988235, 1.000000, 1.000000,
1.000000, 0.988235, 1.000000, 1.000000,
1.000000, 0.988235, 1.000000, 1.000000,
1.000000, 0.988235, 1.000000, 1.000000,
1.000000, 0.988235, 1.000000, 1.000000,
1.000000, 0.988235, 1.000000, 1.000000,
1.000000, 0.988235, 1.000000, 1.000000,
1.000000, 0.988235, 1.000000, 1.000000,
1.000000, 0.988235, 1.000000, 1.000000,
1.000000, 0.988235, 1.000000, 1.000000,
1.000000, 0.988235, 1.000000, 1.000000,
1.000000, 0.988235, 1.000000, 1.000000,
1.000000, 0.988235, 1.000000, 1.000000,
1.000000, 0.988235, 1.000000, 1.000000,
1.000000, 0.988235, 1.000000, 1.000000,
1.000000, 0.988235, 1.000000, 1.000000,
1.000000, 0.988235, 1.000000, 1.000000,
1.000000, 0.988235, 1.000000, 1.000000,
1.000000, 0.988235, 1.000000, 1.000000,
1.000000, 0.988235, 1.000000, 1.000000,
1.000000, 0.988235, 1.000000, 1.000000,
1.000000, 0.988235, 1.000000, 1.000000,
1.000000, 0.988235, 1.000000, 1.000000,
1.000000, 0.988235, 1.000000, 1.000000,
1.000000, 0.988235, 1.000000, 1.000000,
1.000000, 0.988235, 1.000000, 1.000000,
1.000000, 0.988235, 1.000000, 1.000000,
1.000000, 0.988235, 1.000000, 1.000000,
1.000000, 0.988235, 1.000000, 1.000000,
1.000000, 0.988235, 1.000000, 1.000000,
1.000000, 0.988235, 1.000000, 1.000000,
1.000000, 0.988235, 1.000000, 1.000000,
1.000000, 0.988235, 1.000000, 1.000000,
1.000000, 0.988235, 1.000000, 1.000000,
1.000000, 0.988235, 1.000000, 1.000000,
1.000000, 0.988235, 1.000000, 1.000000,
1.000000, 0.988235, 1.000000, 1.000000,
1.000000, 0.988235, 1.000000, 1.000000,
1.000000, 0.988235, 1.000000, 1.000000,
1.000000, 0.988235, 1.000000, 1.000000,
1.000000, 0.988235, 1.000000, 1.000000,
1.000000, 0.988235, 1.000000, 1.000000,
1.000000, 0.988235, 1.000000, 1.000000,
1.000000, 0.988235, 1.000000, 1.000000,
1.000000, 0.988235, 1.000000, 1.000000,
1.000000, 0.988235, 1.000000, 1.000000,
1.000000, 0.988235, 1.000000, 1.000000,
1.000000, 0.988235, 1.000000, 1.000000,
]

colorsb = [
255, 252, 255, 255,
255, 252, 255, 255,
255, 252, 255, 255,
255, 252, 255, 255,
255, 252, 255, 255,
255, 252, 255, 255,
255, 252, 255, 255,
255, 252, 255, 255,
255, 252, 255, 255,
255, 252, 255, 255,
255, 252, 255, 255,
255, 252, 255, 255,
255, 252, 255, 255,
255, 252, 255, 255,
255, 252, 255, 255,
255, 252, 255, 255,
255, 252, 255, 255,
255, 252, 255, 255,
255, 252, 255, 255,
255, 252, 255, 255,
255, 252, 255, 255,
255, 252, 255, 255,
255, 252, 255, 255,
255, 252, 255, 255,
255, 252, 255, 255,
255, 252, 255, 255,
255, 252, 255, 255,
255, 252, 255, 255,
255, 252, 255, 255,
255, 252, 255, 255,
255, 252, 255, 255,
255, 252, 255, 255,
255, 252, 255, 255,
255, 252, 255, 255,
255, 252, 255, 255,
255, 252, 255, 255,
255, 252, 255, 255,
255, 252, 255, 255,
255, 252, 255, 255,
255, 252, 255, 255,
255, 252, 255, 255,
255, 252, 255, 255,
255, 252, 255, 255,
255, 252, 255, 255,
255, 252, 255, 255,
255, 252, 255, 255,
255, 252, 255, 255,
255, 252, 255, 255,
255, 252, 255, 255,
255, 252, 255, 255,
255, 252, 255, 255,
255, 252, 255, 255,
255, 252, 255, 255,
255, 252, 255, 255,
255, 252, 255, 255,
255, 252, 255, 255,
255, 252, 255, 255,
255, 252, 255, 255,
255, 252, 255, 255,
255, 252, 255, 255,
255, 252, 255, 255,
255, 252, 255, 255,
255, 252, 255, 255,
255, 252, 255, 255,
255, 252, 255, 255,
255, 252, 255, 255,
255, 252, 255, 255,
255, 252, 255, 255,
255, 252, 255, 255,
255, 252, 255, 255,
255, 252, 255, 255,
255, 252, 255, 255,
255, 252, 255, 255,
255, 252, 255, 255,
255, 252, 255, 255,
255, 252, 255, 255,
255, 252, 255, 255,
255, 252, 255, 255,
255, 252, 255, 255,
255, 252, 255, 255,
255, 252, 255, 255,
255, 252, 255, 255,
255, 252, 255, 255,
255, 252, 255, 255,
255, 252, 255, 255,
255, 252, 255, 255,
255, 252, 255, 255,
255, 252, 255, 255,
255, 252, 255, 255,
255, 252, 255, 255,
255, 252, 255, 255,
255, 252, 255, 255,
255, 252, 255, 255,
255, 252, 255, 255,
255, 252, 255, 255,
255, 252, 255, 255,
255, 252, 255, 255,
255, 252, 255, 255,
255, 252, 255, 255,
255, 252, 255, 255,
255, 252, 255, 255,
255, 252, 255, 255,
255, 252, 255, 255,
255, 252, 255, 255,
255, 252, 255, 255,
255, 252, 255, 255,
255, 252, 255, 255,
255, 252, 255, 255,
255, 252, 255, 255,
255, 252, 255, 255,
255, 252, 255, 255,
255, 252, 255, 255,
255, 252, 255, 255,
255, 252, 255, 255,
255, 252, 255, 255,
255, 252, 255, 255,
255, 252, 255, 255,
255, 252, 255, 255,
255, 252, 255, 255,
255, 252, 255, 255,
255, 252, 255, 255,
255, 252, 255, 255,
255, 252, 255, 255,
255, 252, 255, 255,
255, 252, 255, 255,
255, 252, 255, 255,
255, 252, 255, 255,
255, 252, 255, 255,
255, 252, 255, 255,
255, 252, 255, 255,
255, 252, 255, 255,
255, 252, 255, 255,
255, 252, 255, 255,
255, 252, 255, 255,
255, 252, 255, 255,
255, 252, 255, 255,
255, 252, 255, 255,
255, 252, 255, 255,
255, 252, 255, 255,
255, 252, 255, 255,
255, 252, 255, 255,
255, 252, 255, 255,
255, 252, 255, 255,
255, 252, 255, 255,
255, 252, 255, 255,
255, 252, 255, 255,
255, 252, 255, 255,
255, 252, 255, 255,
255, 252, 255, 255,
255, 252, 255, 255,
255, 252, 255, 255,
255, 252, 255, 255,
255, 252, 255, 255,
255, 252, 255, 255,
255, 252, 255, 255,
255, 252, 255, 255,
255, 252, 255, 255,
255, 252, 255, 255,
255, 252, 255, 255,
255, 252, 255, 255,
255, 252, 255, 255,
255, 252, 255, 255,
255, 252, 255, 255,
255, 252, 255, 255,
255, 252, 255, 255,
255, 252, 255, 255,
255, 252, 255, 255,
255, 252, 255, 255,
255, 252, 255, 255,
255, 252, 255, 255,
255, 252, 255, 255,
255, 252, 255, 255,
255, 252, 255, 255,
255, 252, 255, 255,
255, 252, 255, 255,
255, 252, 255, 255,
255, 252, 255, 255,
255, 252, 255, 255,
255, 252, 255, 255,
255, 252, 255, 255,
255, 252, 255, 255,
255, 252, 255, 255,
255, 252, 255, 255,
255, 252, 255, 255,
255, 252, 255, 255,
255, 252, 255, 255,
255, 252, 255, 255,
255, 252, 255, 255,
255, 252, 255, 255,
255, 252, 255, 255,
255, 252, 255, 255,
255, 252, 255, 255,
255, 252, 255, 255,
255, 252, 255, 255,
255, 252, 255, 255,
255, 252, 255, 255,
255, 252, 255, 255,
255, 252, 255, 255,
255, 252, 255, 255,
255, 252, 255, 255,
255, 252, 255, 255,
255, 252, 255, 255,
255, 252, 255, 255,
255, 252, 255, 255,
255, 252, 255, 255,
255, 252, 255, 255,
255, 252, 255, 255,
255, 252, 255, 255,
255, 252, 255, 255,
255, 252, 255, 255,
255, 252, 255, 255,
255, 252, 255, 255,
255, 252, 255, 255,
255, 252, 255, 255,
255, 252, 255, 255,
255, 252, 255, 255,
255, 252, 255, 255,
255, 252, 255, 255,
255, 252, 255, 255,
255, 252, 255, 255,
255, 252, 255, 255,
255, 252, 255, 255,
255, 252, 255, 255,
255, 252, 255, 255,
255, 252, 255, 255,
255, 252, 255, 255,
255, 252, 255, 255,
255, 252, 255, 255,
255, 252, 255, 255,
255, 252, 255, 255,
255, 252, 255, 255,
255, 252, 255, 255,
255, 252, 255, 255,
255, 252, 255, 255,
255, 252, 255, 255,
255, 252, 255, 255,
255, 252, 255, 255,
255, 252, 255, 255,
255, 252, 255, 255,
255, 252, 255, 255,
]

