materials = (
  {
    'shininess':102.400001526,
    'specular':[0.25, 0.25, 0.25, 1.0],
    'ambient':[0.15999999642372131, 0.31999999284744263, 0.40000000596046448, 1.0],
    'diffuse':[0.31999999284744263, 0.63999998569488525, 0.80000001192092896, 1.0],
    'emission':[0.0, 0.0, 0.0, 1.0],
  },
  {
    'shininess':102.400001526,
    'specular':[0.25, 0.25, 0.25, 1.0],
    'ambient':[0.31999999284744263, 0.31999999284744263, 0.31999999284744263, 1.0],
    'diffuse':[0.63999998569488525, 0.63999998569488525, 0.63999998569488525, 1.0],
    'emission':[0.0, 0.0, 0.0, 1.0],
  },
  {
    'shininess':102.400001526,
    'specular':[0.25, 0.25, 0.25, 1.0],
    'ambient':[0.11999999731779099, 0.11999999731779099, 0.11999999731779099, 1.0],
    'diffuse':[0.23999999463558197, 0.23999999463558197, 0.23999999463558197, 1.0],
    'emission':[0.0, 0.0, 0.0, 1.0],
  },
)
vertices = [
0.099659, 0.146107, 0.000918,
0.099659, 0.106262, 0.000918,
0.099659, 0.086340, -0.033589,
0.099659, 0.166029, -0.033589,
0.099659, 0.146107, 0.000918,
0.099659, 0.086340, -0.033589,
0.099659, 0.166029, -0.033589,
0.099659, 0.086340, -0.033589,
0.099659, 0.106262, -0.068095,
0.099659, 0.146107, -0.068095,
0.099659, 0.166029, -0.033589,
0.099659, 0.106262, -0.068095,
0.094560, -0.113893, -0.068095,
0.094560, -0.093971, -0.033589,
0.094560, -0.153738, -0.068095,
0.094560, -0.093971, -0.033589,
0.094560, -0.173660, -0.033589,
0.094560, -0.153738, -0.068095,
0.094560, -0.093971, -0.033589,
0.094560, -0.113893, 0.000918,
0.094560, -0.173660, -0.033589,
0.094560, -0.113893, 0.000918,
0.094560, -0.153738, 0.000918,
0.094560, -0.173660, -0.033589,
0.000000, -0.239459, -0.015513,
0.076172, -0.225388, -0.015082,
0.078736, -0.185091, 0.008057,
0.000000, -0.239459, -0.015513,
0.078736, -0.185091, 0.008057,
0.000000, -0.194489, 0.011102,
0.078736, -0.185091, 0.008057,
0.078836, -0.069470, 0.024134,
0.000000, -0.194489, 0.011102,
0.000000, -0.194489, 0.011102,
0.078836, -0.069470, 0.024134,
0.000000, -0.088463, 0.024134,
0.000000, -0.194489, 0.011102,
0.000000, -0.088463, 0.024134,
-0.078836, -0.069470, 0.024134,
0.000000, -0.194489, 0.011102,
-0.078836, -0.069470, 0.024134,
-0.078736, -0.185091, 0.008057,
0.000000, -0.239459, -0.015513,
0.000000, -0.194489, 0.011102,
-0.078736, -0.185091, 0.008057,
0.000000, -0.239459, -0.015513,
-0.078736, -0.185091, 0.008057,
-0.076172, -0.225388, -0.015082,
-0.094560, -0.113893, 0.000918,
-0.094560, -0.173660, -0.033589,
-0.094560, -0.153738, 0.000918,
-0.094560, -0.093971, -0.033589,
-0.094560, -0.173660, -0.033589,
-0.094560, -0.113893, 0.000918,
-0.094560, -0.093971, -0.033589,
-0.094560, -0.153738, -0.068095,
-0.094560, -0.173660, -0.033589,
-0.094560, -0.113893, -0.068095,
-0.094560, -0.153738, -0.068095,
-0.094560, -0.093971, -0.033589,
-0.099659, 0.146107, -0.068095,
-0.099659, 0.106262, -0.068095,
-0.099659, 0.166029, -0.033589,
-0.099659, 0.166029, -0.033589,
-0.099659, 0.106262, -0.068095,
-0.099659, 0.086340, -0.033589,
-0.099659, 0.166029, -0.033589,
-0.099659, 0.086340, -0.033589,
-0.099659, 0.146107, 0.000918,
-0.099659, 0.146107, 0.000918,
-0.099659, 0.086340, -0.033589,
-0.099659, 0.106262, 0.000918,
0.000000, -0.088463, 0.024134,
-0.057483, -0.014669, 0.061015,
-0.078836, -0.069470, 0.024134,
0.000000, -0.088463, 0.024134,
0.000000, -0.021212, 0.066372,
-0.057483, -0.014669, 0.061015,
0.000000, -0.088463, 0.024134,
0.057483, -0.014669, 0.061015,
0.000000, -0.021212, 0.066372,
0.000000, -0.088463, 0.024134,
0.078836, -0.069470, 0.024134,
0.057483, -0.014669, 0.061015,
0.057483, -0.014669, 0.061015,
0.078836, -0.069470, 0.024134,
0.073704, 0.099075, 0.027251,
0.057483, -0.014669, 0.061015,
0.073704, 0.099075, 0.027251,
0.052289, 0.066766, 0.061281,
-0.057483, -0.014669, 0.061015,
-0.052289, 0.066766, 0.061281,
-0.073704, 0.099075, 0.027251,
-0.057483, -0.014669, 0.061015,
-0.073704, 0.099075, 0.027251,
-0.078836, -0.069470, 0.024134,
0.000000, 0.067496, 0.068095,
-0.055077, 0.210014, 0.018061,
-0.052289, 0.066766, 0.061281,
0.000000, 0.067496, 0.068095,
0.000000, 0.220213, 0.019439,
-0.055077, 0.210014, 0.018061,
0.000000, 0.067496, 0.068095,
0.055077, 0.210014, 0.018061,
0.000000, 0.220213, 0.019439,
0.000000, 0.067496, 0.068095,
0.052289, 0.066766, 0.061281,
0.055077, 0.210014, 0.018061,
0.000000, -0.021212, 0.066372,
-0.052289, 0.066766, 0.061281,
-0.057483, -0.014669, 0.061015,
0.000000, -0.021212, 0.066372,
0.000000, 0.067496, 0.068095,
-0.052289, 0.066766, 0.061281,
0.000000, -0.021212, 0.066372,
0.052289, 0.066766, 0.061281,
0.000000, 0.067496, 0.068095,
0.000000, -0.021212, 0.066372,
0.057483, -0.014669, 0.061015,
0.052289, 0.066766, 0.061281,
-0.055077, 0.210014, 0.018061,
-0.073704, 0.099075, 0.027251,
-0.052289, 0.066766, 0.061281,
0.055077, 0.210014, 0.018061,
0.052289, 0.066766, 0.061281,
0.073704, 0.099075, 0.027251,
0.089913, 0.179143, 0.014441,
0.097098, 0.190609, -0.000543,
0.054040, 0.231308, 0.000839,
0.089913, 0.179143, 0.014441,
0.054040, 0.231308, 0.000839,
0.055077, 0.210014, 0.018061,
-0.097098, 0.190609, -0.000543,
-0.055077, 0.210014, 0.018061,
-0.054040, 0.231308, 0.000839,
-0.097098, 0.190609, -0.000543,
-0.089913, 0.179143, 0.014441,
-0.055077, 0.210014, 0.018061,
0.000000, 0.220213, 0.019439,
-0.054040, 0.231308, 0.000839,
-0.055077, 0.210014, 0.018061,
0.000000, 0.220213, 0.019439,
0.000000, 0.239459, 0.002221,
-0.054040, 0.231308, 0.000839,
0.000000, 0.220213, 0.019439,
0.054040, 0.231308, 0.000839,
0.000000, 0.239459, 0.002221,
0.000000, 0.220213, 0.019439,
0.055077, 0.210014, 0.018061,
0.054040, 0.231308, 0.000839,
-0.054011, 0.224947, -0.042453,
0.000000, 0.239459, 0.002221,
0.000000, 0.233638, -0.041237,
-0.054011, 0.224947, -0.042453,
-0.054040, 0.231308, 0.000839,
0.000000, 0.239459, 0.002221,
-0.093243, 0.190622, -0.045026,
-0.054040, 0.231308, 0.000839,
-0.054011, 0.224947, -0.042453,
-0.093243, 0.190622, -0.045026,
-0.097098, 0.190609, -0.000543,
-0.054040, 0.231308, 0.000839,
0.093243, 0.190622, -0.045026,
0.054040, 0.231308, 0.000839,
0.097098, 0.190609, -0.000543,
0.093243, 0.190622, -0.045026,
0.054011, 0.224947, -0.042453,
0.054040, 0.231308, 0.000839,
0.054011, 0.224947, -0.042453,
0.000000, 0.239459, 0.002221,
0.054040, 0.231308, 0.000839,
0.054011, 0.224947, -0.042453,
0.000000, 0.233638, -0.041237,
0.000000, 0.239459, 0.002221,
-0.076172, -0.225388, -0.015082,
-0.078736, -0.185091, 0.008057,
-0.092190, -0.186277, -0.007770,
-0.097098, 0.190609, -0.000543,
-0.093243, 0.190622, -0.045026,
-0.087121, -0.183825, -0.055049,
-0.089913, 0.179143, 0.014441,
-0.078836, -0.069470, 0.024134,
-0.073704, 0.099075, 0.027251,
-0.068555, -0.217799, -0.056287,
-0.076172, -0.225388, -0.015082,
-0.087121, -0.183825, -0.055049,
-0.087121, -0.183825, -0.055049,
-0.076172, -0.225388, -0.015082,
-0.092190, -0.186277, -0.007770,
-0.097098, 0.190609, -0.000543,
-0.087121, -0.183825, -0.055049,
-0.092190, -0.186277, -0.007770,
-0.089913, 0.179143, 0.014441,
-0.097098, 0.190609, -0.000543,
-0.092190, -0.186277, -0.007770,
-0.055077, 0.210014, 0.018061,
-0.089913, 0.179143, 0.014441,
-0.073704, 0.099075, 0.027251,
-0.078836, -0.069470, 0.024134,
-0.089913, 0.179143, 0.014441,
-0.092190, -0.186277, -0.007770,
-0.078736, -0.185091, 0.008057,
-0.078836, -0.069470, 0.024134,
-0.092190, -0.186277, -0.007770,
0.078736, -0.185091, 0.008057,
0.092190, -0.186277, -0.007770,
0.078836, -0.069470, 0.024134,
0.078836, -0.069470, 0.024134,
0.092190, -0.186277, -0.007770,
0.089913, 0.179143, 0.014441,
0.055077, 0.210014, 0.018061,
0.073704, 0.099075, 0.027251,
0.089913, 0.179143, 0.014441,
0.089913, 0.179143, 0.014441,
0.092190, -0.186277, -0.007770,
0.097098, 0.190609, -0.000543,
0.097098, 0.190609, -0.000543,
0.092190, -0.186277, -0.007770,
0.087121, -0.183825, -0.055049,
0.087121, -0.183825, -0.055049,
0.092190, -0.186277, -0.007770,
0.076172, -0.225388, -0.015082,
0.068555, -0.217799, -0.056287,
0.087121, -0.183825, -0.055049,
0.076172, -0.225388, -0.015082,
0.089913, 0.179143, 0.014441,
0.073704, 0.099075, 0.027251,
0.078836, -0.069470, 0.024134,
0.097098, 0.190609, -0.000543,
0.087121, -0.183825, -0.055049,
0.093243, 0.190622, -0.045026,
0.076172, -0.225388, -0.015082,
0.092190, -0.186277, -0.007770,
0.078736, -0.185091, 0.008057,
-0.076172, -0.225388, -0.015082,
-0.068555, -0.217799, -0.056287,
0.000000, -0.234986, -0.056287,
-0.076172, -0.225388, -0.015082,
0.000000, -0.234986, -0.056287,
0.000000, -0.239459, -0.015513,
0.076172, -0.225388, -0.015082,
0.000000, -0.239459, -0.015513,
0.000000, -0.234986, -0.056287,
0.076172, -0.225388, -0.015082,
0.000000, -0.234986, -0.056287,
0.068555, -0.217799, -0.056287,
]

indices = [
0, 1, 2,
3, 4, 5,
6, 7, 8,
9, 10, 11,
12, 13, 14,
15, 16, 17,
18, 19, 20,
21, 22, 23,
24, 25, 26,
27, 28, 29,
30, 31, 32,
33, 34, 35,
36, 37, 38,
39, 40, 41,
42, 43, 44,
45, 46, 47,
48, 49, 50,
51, 52, 53,
54, 55, 56,
57, 58, 59,
60, 61, 62,
63, 64, 65,
66, 67, 68,
69, 70, 71,
72, 73, 74,
75, 76, 77,
78, 79, 80,
81, 82, 83,
84, 85, 86,
87, 88, 89,
90, 91, 92,
93, 94, 95,
96, 97, 98,
99, 100, 101,
102, 103, 104,
105, 106, 107,
108, 109, 110,
111, 112, 113,
114, 115, 116,
117, 118, 119,
120, 121, 122,
123, 124, 125,
126, 127, 128,
129, 130, 131,
132, 133, 134,
135, 136, 137,
138, 139, 140,
141, 142, 143,
144, 145, 146,
147, 148, 149,
150, 151, 152,
153, 154, 155,
156, 157, 158,
159, 160, 161,
162, 163, 164,
165, 166, 167,
168, 169, 170,
171, 172, 173,
174, 175, 176,
177, 178, 179,
180, 181, 182,
183, 184, 185,
186, 187, 188,
189, 190, 191,
192, 193, 194,
195, 196, 197,
198, 199, 200,
201, 202, 203,
204, 205, 206,
207, 208, 209,
210, 211, 212,
213, 214, 215,
216, 217, 218,
219, 220, 221,
222, 223, 224,
225, 226, 227,
228, 229, 230,
231, 232, 233,
234, 235, 236,
237, 238, 239,
240, 241, 242,
243, 244, 245,
]

normals = [
1.000000, 0.000000, 0.000000,
1.000000, 0.000000, 0.000000,
1.000000, 0.000000, 0.000000,
1.000000, 0.000000, 0.000000,
1.000000, 0.000000, 0.000000,
1.000000, 0.000000, 0.000000,
1.000000, 0.000000, 0.000000,
1.000000, 0.000000, 0.000000,
1.000000, 0.000000, 0.000000,
1.000000, 0.000000, 0.000000,
1.000000, 0.000000, 0.000000,
1.000000, 0.000000, 0.000000,
1.000000, 0.000000, 0.000000,
1.000000, 0.000000, 0.000000,
1.000000, 0.000000, 0.000000,
1.000000, 0.000000, 0.000000,
1.000000, 0.000000, 0.000000,
1.000000, 0.000000, 0.000000,
1.000000, 0.000000, 0.000000,
1.000000, 0.000000, 0.000000,
1.000000, 0.000000, 0.000000,
1.000000, 0.000000, 0.000000,
1.000000, 0.000000, 0.000000,
1.000000, 0.000000, 0.000000,
0.000000, -0.505722, 0.862667,
0.087527, -0.500198, 0.861446,
0.079989, -0.388226, 0.918058,
0.000000, -0.505722, 0.862667,
0.079989, -0.388226, 0.918058,
0.000000, -0.260781, 0.965392,
0.079989, -0.388226, 0.918058,
0.042024, -0.129765, 0.990631,
0.000000, -0.260781, 0.965392,
0.000000, -0.260781, 0.965392,
0.042024, -0.129765, 0.990631,
0.000000, -0.121982, 0.992523,
0.000000, -0.260781, 0.965392,
0.000000, -0.121982, 0.992523,
-0.042024, -0.129765, 0.990631,
0.000000, -0.260781, 0.965392,
-0.042024, -0.129765, 0.990631,
-0.079989, -0.388226, 0.918058,
0.000000, -0.505722, 0.862667,
0.000000, -0.260781, 0.965392,
-0.079989, -0.388226, 0.918058,
0.000000, -0.505722, 0.862667,
-0.079989, -0.388226, 0.918058,
-0.087527, -0.500198, 0.861446,
-1.000000, 0.000000, 0.000000,
-1.000000, 0.000000, 0.000000,
-1.000000, 0.000000, 0.000000,
-1.000000, 0.000000, 0.000000,
-1.000000, 0.000000, 0.000000,
-1.000000, 0.000000, 0.000000,
-1.000000, 0.000000, 0.000000,
-1.000000, 0.000000, 0.000000,
-1.000000, 0.000000, 0.000000,
-1.000000, 0.000000, 0.000000,
-1.000000, 0.000000, 0.000000,
-1.000000, 0.000000, 0.000000,
-1.000000, 0.000000, 0.000000,
-1.000000, 0.000000, 0.000000,
-1.000000, 0.000000, 0.000000,
-1.000000, 0.000000, 0.000000,
-1.000000, 0.000000, 0.000000,
-1.000000, 0.000000, 0.000000,
-1.000000, 0.000000, 0.000000,
-1.000000, 0.000000, 0.000000,
-1.000000, 0.000000, 0.000000,
-1.000000, 0.000000, 0.000000,
-1.000000, 0.000000, 0.000000,
-1.000000, 0.000000, 0.000000,
0.000000, -0.527909, 0.849269,
-0.131657, -0.523331, 0.841884,
-0.125217, -0.519852, 0.844997,
0.000000, -0.527909, 0.849269,
0.000000, -0.531846, 0.846828,
-0.131657, -0.523331, 0.841884,
0.000000, -0.527909, 0.849269,
0.131657, -0.523331, 0.841884,
0.000000, -0.531846, 0.846828,
0.000000, -0.527909, 0.849269,
0.125217, -0.519852, 0.844997,
0.131657, -0.523331, 0.841884,
0.850887, 0.034242, 0.524216,
0.876492, 0.017762, 0.481033,
0.850887, 0.034242, 0.524216,
0.850887, 0.034242, 0.524216,
0.850887, 0.034242, 0.524216,
0.822871, 0.050630, 0.565905,
-0.850887, 0.034242, 0.524216,
-0.822871, 0.050630, 0.565905,
-0.850887, 0.034242, 0.524216,
-0.850887, 0.034242, 0.524216,
-0.850887, 0.034242, 0.524216,
-0.876492, 0.017762, 0.481033,
0.000000, 0.295083, 0.955443,
-0.103824, 0.293497, 0.950285,
-0.127781, 0.284188, 0.950194,
0.000000, 0.295083, 0.955443,
0.000000, 0.303568, 0.952788,
-0.103824, 0.293497, 0.950285,
0.000000, 0.295083, 0.955443,
0.103824, 0.293497, 0.950285,
0.000000, 0.303568, 0.952788,
0.000000, 0.295083, 0.955443,
0.127781, 0.284188, 0.950194,
0.103824, 0.293497, 0.950285,
0.000000, -0.008362, 0.999939,
-0.110721, -0.008301, 0.993805,
-0.092471, 0.002625, 0.995697,
0.000000, -0.008362, 0.999939,
0.000000, -0.019410, 0.999786,
-0.110721, -0.008301, 0.993805,
0.000000, -0.008362, 0.999939,
0.110721, -0.008301, 0.993805,
0.000000, -0.019410, 0.999786,
0.000000, -0.008362, 0.999939,
0.092471, 0.002625, 0.995697,
0.110721, -0.008301, 0.993805,
-0.747459, 0.178503, 0.639851,
-0.747459, 0.178503, 0.639851,
-0.747459, 0.178503, 0.639851,
0.747459, 0.178503, 0.639851,
0.747459, 0.178503, 0.639851,
0.747459, 0.178503, 0.639851,
0.536699, 0.538438, 0.649586,
0.526322, 0.534379, 0.661336,
0.536699, 0.538438, 0.649586,
0.536699, 0.538438, 0.649586,
0.536699, 0.538438, 0.649586,
0.546922, 0.542375, 0.637684,
-0.536241, 0.536576, 0.651540,
-0.536241, 0.536576, 0.651540,
-0.536882, 0.546159, 0.642964,
-0.536241, 0.536576, 0.651540,
-0.535508, 0.526872, 0.659993,
-0.536241, 0.536576, 0.651540,
0.000000, 0.649983, 0.759941,
-0.127049, 0.644704, 0.753777,
-0.135289, 0.627033, 0.767144,
0.000000, 0.649983, 0.759941,
0.000000, 0.666738, 0.745262,
-0.127049, 0.644704, 0.753777,
0.000000, 0.649983, 0.759941,
0.127049, 0.644704, 0.753777,
0.000000, 0.666738, 0.745262,
0.000000, 0.649983, 0.759941,
0.135289, 0.627033, 0.767144,
0.127049, 0.644704, 0.753777,
-0.327525, 0.935392, -0.133213,
0.000000, 0.990265, -0.139103,
0.000000, 0.991150, -0.132725,
-0.327525, 0.935392, -0.133213,
-0.512650, 0.851650, -0.108798,
0.000000, 0.990265, -0.139103,
-0.843196, 0.529527, -0.092685,
-0.512650, 0.851650, -0.108798,
-0.327525, 0.935392, -0.133213,
-0.843196, 0.529527, -0.092685,
-0.981323, 0.186712, 0.045808,
-0.512650, 0.851650, -0.108798,
0.843196, 0.529527, -0.092685,
0.512650, 0.851650, -0.108798,
0.981323, 0.186712, 0.045808,
0.843196, 0.529527, -0.092685,
0.327525, 0.935392, -0.133213,
0.512650, 0.851650, -0.108798,
0.327525, 0.935392, -0.133213,
0.000000, 0.990265, -0.139103,
0.512650, 0.851650, -0.108798,
0.327525, 0.935392, -0.133213,
0.000000, 0.991150, -0.132725,
0.000000, 0.990265, -0.139103,
-0.893918, -0.438795, 0.091189,
-0.729301, -0.246010, 0.638386,
-0.925626, -0.160741, 0.342540,
-0.981323, 0.186712, 0.045808,
-0.843196, 0.529527, -0.092685,
-0.966155, -0.215339, -0.141850,
-0.702841, 0.020600, 0.711020,
-0.764794, -0.036988, 0.643178,
-0.416486, 0.060823, 0.907102,
-0.855007, -0.458388, -0.242470,
-0.893918, -0.438795, 0.091189,
-0.966155, -0.215339, -0.141850,
-0.966155, -0.215339, -0.141850,
-0.893918, -0.438795, 0.091189,
-0.925626, -0.160741, 0.342540,
-0.981323, 0.186712, 0.045808,
-0.966155, -0.215339, -0.141850,
-0.925626, -0.160741, 0.342540,
-0.702841, 0.020600, 0.711020,
-0.981323, 0.186712, 0.045808,
-0.925626, -0.160741, 0.342540,
-0.202612, 0.114566, 0.972503,
-0.702841, 0.020600, 0.711020,
-0.416486, 0.060823, 0.907102,
-0.764794, -0.036988, 0.643178,
-0.702841, 0.020600, 0.711020,
-0.925626, -0.160741, 0.342540,
-0.729301, -0.246010, 0.638386,
-0.764794, -0.036988, 0.643178,
-0.925626, -0.160741, 0.342540,
0.729301, -0.246010, 0.638386,
0.925626, -0.160741, 0.342540,
0.764794, -0.036988, 0.643178,
0.764794, -0.036988, 0.643178,
0.925626, -0.160741, 0.342540,
0.702841, 0.020600, 0.711020,
0.202612, 0.114566, 0.972503,
0.416486, 0.060823, 0.907102,
0.702841, 0.020600, 0.711020,
0.702841, 0.020600, 0.711020,
0.925626, -0.160741, 0.342540,
0.981323, 0.186712, 0.045808,
0.981323, 0.186712, 0.045808,
0.925626, -0.160741, 0.342540,
0.966155, -0.215339, -0.141850,
0.966155, -0.215339, -0.141850,
0.925626, -0.160741, 0.342540,
0.893918, -0.438795, 0.091189,
0.855007, -0.458388, -0.242470,
0.966155, -0.215339, -0.141850,
0.893918, -0.438795, 0.091189,
0.702841, 0.020600, 0.711020,
0.416486, 0.060823, 0.907102,
0.764794, -0.036988, 0.643178,
0.981323, 0.186712, 0.045808,
0.966155, -0.215339, -0.141850,
0.843196, 0.529527, -0.092685,
0.893918, -0.438795, 0.091189,
0.925626, -0.160741, 0.342540,
0.729301, -0.246010, 0.638386,
-0.209662, -0.964049, -0.163030,
-0.237312, -0.946593, -0.218177,
0.000000, -0.985992, -0.166723,
-0.209662, -0.964049, -0.163030,
0.000000, -0.985992, -0.166723,
0.000000, -0.994018, -0.109012,
0.209662, -0.964049, -0.163030,
0.000000, -0.994018, -0.109012,
0.000000, -0.985992, -0.166723,
0.209662, -0.964049, -0.163030,
0.000000, -0.985992, -0.166723,
0.237312, -0.946593, -0.218177,
]

texcoords = [
0.399688, 0.384516,
0.356792, 0.384516,
0.335344, 0.347367,
0.421137, 0.347367,
0.399688, 0.384516,
0.335344, 0.347367,
0.421137, 0.347367,
0.335344, 0.347367,
0.356792, 0.310218,
0.399688, 0.310218,
0.421137, 0.347367,
0.356792, 0.310218,
0.458286, 0.310218,
0.495435, 0.331666,
0.421137, 0.331666,
0.495435, 0.331666,
0.421137, 0.374562,
0.421137, 0.331666,
0.495435, 0.331666,
0.495435, 0.374562,
0.421137, 0.374562,
0.495435, 0.374562,
0.458286, 0.396010,
0.421137, 0.374562,
0.082798, 0.379011,
0.003375, 0.365535,
0.001061, 0.317192,
0.082798, 0.379011,
0.001061, 0.317192,
0.082798, 0.324871,
0.001061, 0.317192,
0.000000, 0.195055,
0.082798, 0.324871,
0.082798, 0.324871,
0.000000, 0.195055,
0.082798, 0.214305,
0.082798, 0.324871,
0.082798, 0.214305,
0.165596, 0.195055,
0.082798, 0.324871,
0.165596, 0.195055,
0.164535, 0.317192,
0.082798, 0.379011,
0.082798, 0.324871,
0.164535, 0.317192,
0.082798, 0.379011,
0.164535, 0.317192,
0.162221, 0.365535,
0.065928, 0.424689,
0.001584, 0.461838,
0.023032, 0.424689,
0.087377, 0.461838,
0.001584, 0.461838,
0.065928, 0.424689,
0.087377, 0.461838,
0.023032, 0.498988,
0.001584, 0.461838,
0.065928, 0.498988,
0.023032, 0.498988,
0.087377, 0.461838,
0.411479, 0.472193,
0.368582, 0.472193,
0.432927, 0.435044,
0.432927, 0.435044,
0.368582, 0.472193,
0.347134, 0.435044,
0.432927, 0.435044,
0.347134, 0.435044,
0.411479, 0.397894,
0.411479, 0.397894,
0.347134, 0.435044,
0.368582, 0.397894,
0.250470, 0.310218,
0.188493, 0.397894,
0.165596, 0.327388,
0.250470, 0.310218,
0.250470, 0.395020,
0.188493, 0.397894,
0.250470, 0.310218,
0.312447, 0.397894,
0.250470, 0.395020,
0.250470, 0.310218,
0.335344, 0.327388,
0.312447, 0.397894,
0.225980, 0.441913,
0.165596, 0.397894,
0.347134, 0.397895,
0.225980, 0.441913,
0.347134, 0.397895,
0.313814, 0.442306,
0.225980, 0.442699,
0.313815, 0.442306,
0.347134, 0.486718,
0.225980, 0.442699,
0.347134, 0.486718,
0.165596, 0.486718,
0.165596, 0.249972,
0.321964, 0.310218,
0.166073, 0.304937,
0.165596, 0.249972,
0.332631, 0.252801,
0.321964, 0.310218,
0.165596, 0.249972,
0.323914, 0.195055,
0.332631, 0.252801,
0.165596, 0.249972,
0.167934, 0.195055,
0.323914, 0.195055,
0.394621, 0.215146,
0.336579, 0.308369,
0.332631, 0.221008,
0.394621, 0.215146,
0.393066, 0.310218,
0.336579, 0.308369,
0.394621, 0.215146,
0.449582, 0.310218,
0.393066, 0.310218,
0.394621, 0.215146,
0.456385, 0.223033,
0.449582, 0.310218,
0.508219, 0.472193,
0.391432, 0.505664,
0.347134, 0.472193,
0.326681, 0.520189,
0.165596, 0.520189,
0.209894, 0.486718,
0.122848, 0.477775,
0.113346, 0.458767,
0.165596, 0.424689,
0.122848, 0.477775,
0.165596, 0.424689,
0.165596, 0.453537,
0.434041, 0.419115,
0.482066, 0.397894,
0.496298, 0.422986,
0.434041, 0.419115,
0.432927, 0.397894,
0.482066, 0.397894,
0.060879, 0.506140,
0.002864, 0.528174,
0.001584, 0.498988,
0.060879, 0.506140,
0.060879, 0.533667,
0.002864, 0.528174,
0.060879, 0.506140,
0.118893, 0.528174,
0.060879, 0.533667,
0.060879, 0.506140,
0.120173, 0.498988,
0.118893, 0.528174,
0.556544, 0.077329,
0.500081, 0.125057,
0.500079, 0.079767,
0.556544, 0.077329,
0.556492, 0.122523,
0.500081, 0.125057,
0.609895, 0.069636,
0.556492, 0.122523,
0.556544, 0.077329,
0.609895, 0.069636,
0.617257, 0.115157,
0.556492, 0.122523,
0.390244, 0.069636,
0.443665, 0.122531,
0.382884, 0.115172,
0.390244, 0.069636,
0.443609, 0.077330,
0.443665, 0.122531,
0.443609, 0.077330,
0.500081, 0.125057,
0.443665, 0.122531,
0.443609, 0.077330,
0.500079, 0.079767,
0.500081, 0.125057,
1.000000, 0.040830,
0.966208, 0.070853,
0.960654, 0.051839,
0.617257, 0.115157,
0.609895, 0.069636,
0.953537, 0.006733,
0.654950, 0.152535,
0.861701, 0.113481,
0.741128, 0.153105,
0.990973, 0.000000,
1.000000, 0.040830,
0.953537, 0.006733,
0.953537, 0.006733,
1.000000, 0.040830,
0.960654, 0.051839,
0.617257, 0.115157,
0.953537, 0.006733,
0.960654, 0.051839,
0.654950, 0.152535,
0.617257, 0.115157,
0.960654, 0.051839,
0.631215, 0.195012,
0.654950, 0.152535,
0.741128, 0.153105,
0.861701, 0.113481,
0.654950, 0.152535,
0.960654, 0.051839,
0.966208, 0.070853,
0.861701, 0.113481,
0.960654, 0.051839,
0.033806, 0.070877,
0.039361, 0.051856,
0.138353, 0.113512,
0.138353, 0.113512,
0.039361, 0.051856,
0.345180, 0.152565,
0.368926, 0.195055,
0.258971, 0.153142,
0.345180, 0.152565,
0.345180, 0.152565,
0.039361, 0.051856,
0.382884, 0.115172,
0.382884, 0.115172,
0.039361, 0.051856,
0.046478, 0.006734,
0.046478, 0.006734,
0.039361, 0.051856,
0.000000, 0.040845,
0.009027, 0.000000,
0.046478, 0.006734,
0.000000, 0.040845,
0.345180, 0.152565,
0.258971, 0.153142,
0.138353, 0.113512,
0.382884, 0.115172,
0.046478, 0.006734,
0.390244, 0.069636,
0.000000, 0.040845,
0.039361, 0.051856,
0.033806, 0.070877,
0.001584, 0.423518,
0.008794, 0.379011,
0.083590, 0.381260,
0.001584, 0.423518,
0.083590, 0.381260,
0.083590, 0.424689,
0.165596, 0.423518,
0.083590, 0.424689,
0.083590, 0.381260,
0.165596, 0.423518,
0.083590, 0.381260,
0.158386, 0.379011,
]

colorsf = [
1.000000, 1.000000, 1.000000, 1.000000,
1.000000, 1.000000, 1.000000, 1.000000,
1.000000, 1.000000, 1.000000, 1.000000,
1.000000, 1.000000, 1.000000, 1.000000,
1.000000, 1.000000, 1.000000, 1.000000,
1.000000, 1.000000, 1.000000, 1.000000,
1.000000, 1.000000, 1.000000, 1.000000,
1.000000, 1.000000, 1.000000, 1.000000,
1.000000, 1.000000, 1.000000, 1.000000,
1.000000, 1.000000, 1.000000, 1.000000,
1.000000, 1.000000, 1.000000, 1.000000,
1.000000, 1.000000, 1.000000, 1.000000,
1.000000, 1.000000, 1.000000, 1.000000,
1.000000, 1.000000, 1.000000, 1.000000,
1.000000, 1.000000, 1.000000, 1.000000,
1.000000, 1.000000, 1.000000, 1.000000,
1.000000, 1.000000, 1.000000, 1.000000,
1.000000, 1.000000, 1.000000, 1.000000,
1.000000, 1.000000, 1.000000, 1.000000,
1.000000, 1.000000, 1.000000, 1.000000,
1.000000, 1.000000, 1.000000, 1.000000,
1.000000, 1.000000, 1.000000, 1.000000,
1.000000, 1.000000, 1.000000, 1.000000,
1.000000, 1.000000, 1.000000, 1.000000,
1.000000, 1.000000, 1.000000, 1.000000,
1.000000, 1.000000, 1.000000, 1.000000,
1.000000, 1.000000, 1.000000, 1.000000,
1.000000, 1.000000, 1.000000, 1.000000,
1.000000, 1.000000, 1.000000, 1.000000,
1.000000, 1.000000, 1.000000, 1.000000,
1.000000, 1.000000, 1.000000, 1.000000,
1.000000, 1.000000, 1.000000, 1.000000,
1.000000, 1.000000, 1.000000, 1.000000,
1.000000, 1.000000, 1.000000, 1.000000,
1.000000, 1.000000, 1.000000, 1.000000,
1.000000, 1.000000, 1.000000, 1.000000,
1.000000, 1.000000, 1.000000, 1.000000,
1.000000, 1.000000, 1.000000, 1.000000,
1.000000, 1.000000, 1.000000, 1.000000,
1.000000, 1.000000, 1.000000, 1.000000,
1.000000, 1.000000, 1.000000, 1.000000,
1.000000, 1.000000, 1.000000, 1.000000,
1.000000, 1.000000, 1.000000, 1.000000,
1.000000, 1.000000, 1.000000, 1.000000,
1.000000, 1.000000, 1.000000, 1.000000,
1.000000, 1.000000, 1.000000, 1.000000,
1.000000, 1.000000, 1.000000, 1.000000,
1.000000, 1.000000, 1.000000, 1.000000,
1.000000, 1.000000, 1.000000, 1.000000,
1.000000, 1.000000, 1.000000, 1.000000,
1.000000, 1.000000, 1.000000, 1.000000,
1.000000, 1.000000, 1.000000, 1.000000,
1.000000, 1.000000, 1.000000, 1.000000,
1.000000, 1.000000, 1.000000, 1.000000,
1.000000, 1.000000, 1.000000, 1.000000,
1.000000, 1.000000, 1.000000, 1.000000,
1.000000, 1.000000, 1.000000, 1.000000,
1.000000, 1.000000, 1.000000, 1.000000,
1.000000, 1.000000, 1.000000, 1.000000,
1.000000, 1.000000, 1.000000, 1.000000,
1.000000, 1.000000, 1.000000, 1.000000,
1.000000, 1.000000, 1.000000, 1.000000,
1.000000, 1.000000, 1.000000, 1.000000,
1.000000, 1.000000, 1.000000, 1.000000,
1.000000, 1.000000, 1.000000, 1.000000,
1.000000, 1.000000, 1.000000, 1.000000,
1.000000, 1.000000, 1.000000, 1.000000,
1.000000, 1.000000, 1.000000, 1.000000,
1.000000, 1.000000, 1.000000, 1.000000,
1.000000, 1.000000, 1.000000, 1.000000,
1.000000, 1.000000, 1.000000, 1.000000,
1.000000, 1.000000, 1.000000, 1.000000,
1.000000, 1.000000, 1.000000, 1.000000,
1.000000, 1.000000, 1.000000, 1.000000,
1.000000, 1.000000, 1.000000, 1.000000,
1.000000, 1.000000, 1.000000, 1.000000,
1.000000, 1.000000, 1.000000, 1.000000,
1.000000, 1.000000, 1.000000, 1.000000,
1.000000, 1.000000, 1.000000, 1.000000,
1.000000, 1.000000, 1.000000, 1.000000,
1.000000, 1.000000, 1.000000, 1.000000,
1.000000, 1.000000, 1.000000, 1.000000,
1.000000, 1.000000, 1.000000, 1.000000,
1.000000, 1.000000, 1.000000, 1.000000,
1.000000, 1.000000, 1.000000, 1.000000,
1.000000, 1.000000, 1.000000, 1.000000,
1.000000, 1.000000, 1.000000, 1.000000,
1.000000, 1.000000, 1.000000, 1.000000,
1.000000, 1.000000, 1.000000, 1.000000,
1.000000, 1.000000, 1.000000, 1.000000,
1.000000, 1.000000, 1.000000, 1.000000,
1.000000, 1.000000, 1.000000, 1.000000,
1.000000, 1.000000, 1.000000, 1.000000,
1.000000, 1.000000, 1.000000, 1.000000,
1.000000, 1.000000, 1.000000, 1.000000,
1.000000, 1.000000, 1.000000, 1.000000,
1.000000, 1.000000, 1.000000, 1.000000,
1.000000, 1.000000, 1.000000, 1.000000,
1.000000, 1.000000, 1.000000, 1.000000,
1.000000, 1.000000, 1.000000, 1.000000,
1.000000, 1.000000, 1.000000, 1.000000,
1.000000, 1.000000, 1.000000, 1.000000,
1.000000, 1.000000, 1.000000, 1.000000,
1.000000, 1.000000, 1.000000, 1.000000,
1.000000, 1.000000, 1.000000, 1.000000,
1.000000, 1.000000, 1.000000, 1.000000,
1.000000, 1.000000, 1.000000, 1.000000,
1.000000, 1.000000, 1.000000, 1.000000,
1.000000, 1.000000, 1.000000, 1.000000,
1.000000, 1.000000, 1.000000, 1.000000,
1.000000, 1.000000, 1.000000, 1.000000,
1.000000, 1.000000, 1.000000, 1.000000,
1.000000, 1.000000, 1.000000, 1.000000,
1.000000, 1.000000, 1.000000, 1.000000,
1.000000, 1.000000, 1.000000, 1.000000,
1.000000, 1.000000, 1.000000, 1.000000,
1.000000, 1.000000, 1.000000, 1.000000,
1.000000, 1.000000, 1.000000, 1.000000,
1.000000, 1.000000, 1.000000, 1.000000,
1.000000, 1.000000, 1.000000, 1.000000,
1.000000, 1.000000, 1.000000, 1.000000,
1.000000, 1.000000, 1.000000, 1.000000,
1.000000, 1.000000, 1.000000, 1.000000,
1.000000, 1.000000, 1.000000, 1.000000,
1.000000, 1.000000, 1.000000, 1.000000,
1.000000, 1.000000, 1.000000, 1.000000,
1.000000, 1.000000, 1.000000, 1.000000,
1.000000, 1.000000, 1.000000, 1.000000,
1.000000, 1.000000, 1.000000, 1.000000,
1.000000, 1.000000, 1.000000, 1.000000,
1.000000, 1.000000, 1.000000, 1.000000,
1.000000, 1.000000, 1.000000, 1.000000,
1.000000, 1.000000, 1.000000, 1.000000,
1.000000, 1.000000, 1.000000, 1.000000,
1.000000, 1.000000, 1.000000, 1.000000,
1.000000, 1.000000, 1.000000, 1.000000,
1.000000, 1.000000, 1.000000, 1.000000,
1.000000, 1.000000, 1.000000, 1.000000,
1.000000, 1.000000, 1.000000, 1.000000,
1.000000, 1.000000, 1.000000, 1.000000,
1.000000, 1.000000, 1.000000, 1.000000,
1.000000, 1.000000, 1.000000, 1.000000,
1.000000, 1.000000, 1.000000, 1.000000,
1.000000, 1.000000, 1.000000, 1.000000,
1.000000, 1.000000, 1.000000, 1.000000,
1.000000, 1.000000, 1.000000, 1.000000,
1.000000, 1.000000, 1.000000, 1.000000,
1.000000, 1.000000, 1.000000, 1.000000,
1.000000, 1.000000, 1.000000, 1.000000,
1.000000, 1.000000, 1.000000, 1.000000,
1.000000, 1.000000, 1.000000, 1.000000,
1.000000, 1.000000, 1.000000, 1.000000,
1.000000, 1.000000, 1.000000, 1.000000,
1.000000, 1.000000, 1.000000, 1.000000,
1.000000, 1.000000, 1.000000, 1.000000,
1.000000, 1.000000, 1.000000, 1.000000,
1.000000, 1.000000, 1.000000, 1.000000,
1.000000, 1.000000, 1.000000, 1.000000,
1.000000, 1.000000, 1.000000, 1.000000,
1.000000, 1.000000, 1.000000, 1.000000,
1.000000, 1.000000, 1.000000, 1.000000,
1.000000, 1.000000, 1.000000, 1.000000,
1.000000, 1.000000, 1.000000, 1.000000,
1.000000, 1.000000, 1.000000, 1.000000,
1.000000, 1.000000, 1.000000, 1.000000,
1.000000, 1.000000, 1.000000, 1.000000,
1.000000, 1.000000, 1.000000, 1.000000,
1.000000, 1.000000, 1.000000, 1.000000,
1.000000, 1.000000, 1.000000, 1.000000,
1.000000, 1.000000, 1.000000, 1.000000,
1.000000, 1.000000, 1.000000, 1.000000,
1.000000, 1.000000, 1.000000, 1.000000,
1.000000, 1.000000, 1.000000, 1.000000,
1.000000, 1.000000, 1.000000, 1.000000,
1.000000, 1.000000, 1.000000, 1.000000,
1.000000, 1.000000, 1.000000, 1.000000,
1.000000, 1.000000, 1.000000, 1.000000,
1.000000, 1.000000, 1.000000, 1.000000,
1.000000, 1.000000, 1.000000, 1.000000,
1.000000, 1.000000, 1.000000, 1.000000,
1.000000, 1.000000, 1.000000, 1.000000,
1.000000, 1.000000, 1.000000, 1.000000,
1.000000, 1.000000, 1.000000, 1.000000,
1.000000, 1.000000, 1.000000, 1.000000,
1.000000, 1.000000, 1.000000, 1.000000,
1.000000, 1.000000, 1.000000, 1.000000,
1.000000, 1.000000, 1.000000, 1.000000,
1.000000, 1.000000, 1.000000, 1.000000,
1.000000, 1.000000, 1.000000, 1.000000,
1.000000, 1.000000, 1.000000, 1.000000,
1.000000, 1.000000, 1.000000, 1.000000,
1.000000, 1.000000, 1.000000, 1.000000,
1.000000, 1.000000, 1.000000, 1.000000,
1.000000, 1.000000, 1.000000, 1.000000,
1.000000, 1.000000, 1.000000, 1.000000,
1.000000, 1.000000, 1.000000, 1.000000,
1.000000, 1.000000, 1.000000, 1.000000,
1.000000, 1.000000, 1.000000, 1.000000,
1.000000, 1.000000, 1.000000, 1.000000,
1.000000, 1.000000, 1.000000, 1.000000,
1.000000, 1.000000, 1.000000, 1.000000,
1.000000, 1.000000, 1.000000, 1.000000,
1.000000, 1.000000, 1.000000, 1.000000,
1.000000, 1.000000, 1.000000, 1.000000,
1.000000, 1.000000, 1.000000, 1.000000,
1.000000, 1.000000, 1.000000, 1.000000,
1.000000, 1.000000, 1.000000, 1.000000,
1.000000, 1.000000, 1.000000, 1.000000,
1.000000, 1.000000, 1.000000, 1.000000,
1.000000, 1.000000, 1.000000, 1.000000,
1.000000, 1.000000, 1.000000, 1.000000,
1.000000, 1.000000, 1.000000, 1.000000,
1.000000, 1.000000, 1.000000, 1.000000,
1.000000, 1.000000, 1.000000, 1.000000,
1.000000, 1.000000, 1.000000, 1.000000,
1.000000, 1.000000, 1.000000, 1.000000,
1.000000, 1.000000, 1.000000, 1.000000,
1.000000, 1.000000, 1.000000, 1.000000,
1.000000, 1.000000, 1.000000, 1.000000,
1.000000, 1.000000, 1.000000, 1.000000,
1.000000, 1.000000, 1.000000, 1.000000,
1.000000, 1.000000, 1.000000, 1.000000,
1.000000, 1.000000, 1.000000, 1.000000,
1.000000, 1.000000, 1.000000, 1.000000,
1.000000, 1.000000, 1.000000, 1.000000,
1.000000, 1.000000, 1.000000, 1.000000,
1.000000, 1.000000, 1.000000, 1.000000,
1.000000, 1.000000, 1.000000, 1.000000,
1.000000, 1.000000, 1.000000, 1.000000,
1.000000, 1.000000, 1.000000, 1.000000,
1.000000, 1.000000, 1.000000, 1.000000,
1.000000, 1.000000, 1.000000, 1.000000,
1.000000, 1.000000, 1.000000, 1.000000,
1.000000, 1.000000, 1.000000, 1.000000,
1.000000, 1.000000, 1.000000, 1.000000,
1.000000, 1.000000, 1.000000, 1.000000,
1.000000, 1.000000, 1.000000, 1.000000,
1.000000, 1.000000, 1.000000, 1.000000,
1.000000, 1.000000, 1.000000, 1.000000,
1.000000, 1.000000, 1.000000, 1.000000,
1.000000, 1.000000, 1.000000, 1.000000,
1.000000, 1.000000, 1.000000, 1.000000,
1.000000, 1.000000, 1.000000, 1.000000,
1.000000, 1.000000, 1.000000, 1.000000,
1.000000, 1.000000, 1.000000, 1.000000,
1.000000, 1.000000, 1.000000, 1.000000,
]

colorsb = [
255, 255, 255, 255,
255, 255, 255, 255,
255, 255, 255, 255,
255, 255, 255, 255,
255, 255, 255, 255,
255, 255, 255, 255,
255, 255, 255, 255,
255, 255, 255, 255,
255, 255, 255, 255,
255, 255, 255, 255,
255, 255, 255, 255,
255, 255, 255, 255,
255, 255, 255, 255,
255, 255, 255, 255,
255, 255, 255, 255,
255, 255, 255, 255,
255, 255, 255, 255,
255, 255, 255, 255,
255, 255, 255, 255,
255, 255, 255, 255,
255, 255, 255, 255,
255, 255, 255, 255,
255, 255, 255, 255,
255, 255, 255, 255,
255, 255, 255, 255,
255, 255, 255, 255,
255, 255, 255, 255,
255, 255, 255, 255,
255, 255, 255, 255,
255, 255, 255, 255,
255, 255, 255, 255,
255, 255, 255, 255,
255, 255, 255, 255,
255, 255, 255, 255,
255, 255, 255, 255,
255, 255, 255, 255,
255, 255, 255, 255,
255, 255, 255, 255,
255, 255, 255, 255,
255, 255, 255, 255,
255, 255, 255, 255,
255, 255, 255, 255,
255, 255, 255, 255,
255, 255, 255, 255,
255, 255, 255, 255,
255, 255, 255, 255,
255, 255, 255, 255,
255, 255, 255, 255,
255, 255, 255, 255,
255, 255, 255, 255,
255, 255, 255, 255,
255, 255, 255, 255,
255, 255, 255, 255,
255, 255, 255, 255,
255, 255, 255, 255,
255, 255, 255, 255,
255, 255, 255, 255,
255, 255, 255, 255,
255, 255, 255, 255,
255, 255, 255, 255,
255, 255, 255, 255,
255, 255, 255, 255,
255, 255, 255, 255,
255, 255, 255, 255,
255, 255, 255, 255,
255, 255, 255, 255,
255, 255, 255, 255,
255, 255, 255, 255,
255, 255, 255, 255,
255, 255, 255, 255,
255, 255, 255, 255,
255, 255, 255, 255,
255, 255, 255, 255,
255, 255, 255, 255,
255, 255, 255, 255,
255, 255, 255, 255,
255, 255, 255, 255,
255, 255, 255, 255,
255, 255, 255, 255,
255, 255, 255, 255,
255, 255, 255, 255,
255, 255, 255, 255,
255, 255, 255, 255,
255, 255, 255, 255,
255, 255, 255, 255,
255, 255, 255, 255,
255, 255, 255, 255,
255, 255, 255, 255,
255, 255, 255, 255,
255, 255, 255, 255,
255, 255, 255, 255,
255, 255, 255, 255,
255, 255, 255, 255,
255, 255, 255, 255,
255, 255, 255, 255,
255, 255, 255, 255,
255, 255, 255, 255,
255, 255, 255, 255,
255, 255, 255, 255,
255, 255, 255, 255,
255, 255, 255, 255,
255, 255, 255, 255,
255, 255, 255, 255,
255, 255, 255, 255,
255, 255, 255, 255,
255, 255, 255, 255,
255, 255, 255, 255,
255, 255, 255, 255,
255, 255, 255, 255,
255, 255, 255, 255,
255, 255, 255, 255,
255, 255, 255, 255,
255, 255, 255, 255,
255, 255, 255, 255,
255, 255, 255, 255,
255, 255, 255, 255,
255, 255, 255, 255,
255, 255, 255, 255,
255, 255, 255, 255,
255, 255, 255, 255,
255, 255, 255, 255,
255, 255, 255, 255,
255, 255, 255, 255,
255, 255, 255, 255,
255, 255, 255, 255,
255, 255, 255, 255,
255, 255, 255, 255,
255, 255, 255, 255,
255, 255, 255, 255,
255, 255, 255, 255,
255, 255, 255, 255,
255, 255, 255, 255,
255, 255, 255, 255,
255, 255, 255, 255,
255, 255, 255, 255,
255, 255, 255, 255,
255, 255, 255, 255,
255, 255, 255, 255,
255, 255, 255, 255,
255, 255, 255, 255,
255, 255, 255, 255,
255, 255, 255, 255,
255, 255, 255, 255,
255, 255, 255, 255,
255, 255, 255, 255,
255, 255, 255, 255,
255, 255, 255, 255,
255, 255, 255, 255,
255, 255, 255, 255,
255, 255, 255, 255,
255, 255, 255, 255,
255, 255, 255, 255,
255, 255, 255, 255,
255, 255, 255, 255,
255, 255, 255, 255,
255, 255, 255, 255,
255, 255, 255, 255,
255, 255, 255, 255,
255, 255, 255, 255,
255, 255, 255, 255,
255, 255, 255, 255,
255, 255, 255, 255,
255, 255, 255, 255,
255, 255, 255, 255,
255, 255, 255, 255,
255, 255, 255, 255,
255, 255, 255, 255,
255, 255, 255, 255,
255, 255, 255, 255,
255, 255, 255, 255,
255, 255, 255, 255,
255, 255, 255, 255,
255, 255, 255, 255,
255, 255, 255, 255,
255, 255, 255, 255,
255, 255, 255, 255,
255, 255, 255, 255,
255, 255, 255, 255,
255, 255, 255, 255,
255, 255, 255, 255,
255, 255, 255, 255,
255, 255, 255, 255,
255, 255, 255, 255,
255, 255, 255, 255,
255, 255, 255, 255,
255, 255, 255, 255,
255, 255, 255, 255,
255, 255, 255, 255,
255, 255, 255, 255,
255, 255, 255, 255,
255, 255, 255, 255,
255, 255, 255, 255,
255, 255, 255, 255,
255, 255, 255, 255,
255, 255, 255, 255,
255, 255, 255, 255,
255, 255, 255, 255,
255, 255, 255, 255,
255, 255, 255, 255,
255, 255, 255, 255,
255, 255, 255, 255,
255, 255, 255, 255,
255, 255, 255, 255,
255, 255, 255, 255,
255, 255, 255, 255,
255, 255, 255, 255,
255, 255, 255, 255,
255, 255, 255, 255,
255, 255, 255, 255,
255, 255, 255, 255,
255, 255, 255, 255,
255, 255, 255, 255,
255, 255, 255, 255,
255, 255, 255, 255,
255, 255, 255, 255,
255, 255, 255, 255,
255, 255, 255, 255,
255, 255, 255, 255,
255, 255, 255, 255,
255, 255, 255, 255,
255, 255, 255, 255,
255, 255, 255, 255,
255, 255, 255, 255,
255, 255, 255, 255,
255, 255, 255, 255,
255, 255, 255, 255,
255, 255, 255, 255,
255, 255, 255, 255,
255, 255, 255, 255,
255, 255, 255, 255,
255, 255, 255, 255,
255, 255, 255, 255,
255, 255, 255, 255,
255, 255, 255, 255,
255, 255, 255, 255,
255, 255, 255, 255,
255, 255, 255, 255,
255, 255, 255, 255,
255, 255, 255, 255,
255, 255, 255, 255,
255, 255, 255, 255,
255, 255, 255, 255,
255, 255, 255, 255,
255, 255, 255, 255,
255, 255, 255, 255,
255, 255, 255, 255,
]

